%YAML 1.1
%TAG !u! tag:unity3d.com,2011:
--- !u!29 &1
OcclusionCullingSettings:
  m_ObjectHideFlags: 0
  serializedVersion: 2
  m_OcclusionBakeSettings:
    smallestOccluder: 5
    smallestHole: 0.25
    backfaceThreshold: 100
  m_SceneGUID: 00000000000000000000000000000000
  m_OcclusionCullingData: {fileID: 0}
--- !u!104 &2
RenderSettings:
  m_ObjectHideFlags: 0
  serializedVersion: 9
  m_Fog: 0
  m_FogColor: {r: 0.5, g: 0.5, b: 0.5, a: 1}
  m_FogMode: 3
  m_FogDensity: 0.01
  m_LinearFogStart: 0
  m_LinearFogEnd: 300
  m_AmbientSkyColor: {r: 0.091313615, g: 0.09670777, b: 0.11320752, a: 1}
  m_AmbientEquatorColor: {r: 0.114, g: 0.125, b: 0.133, a: 1}
  m_AmbientGroundColor: {r: 0.047, g: 0.043, b: 0.035, a: 1}
  m_AmbientIntensity: 0.97
  m_AmbientMode: 0
  m_SubtractiveShadowColor: {r: 0.42, g: 0.478, b: 0.627, a: 1}
  m_SkyboxMaterial: {fileID: 2100000, guid: b9be0c15efe8ad9489fdeead114d8ec5, type: 2}
  m_HaloStrength: 0.5
  m_FlareStrength: 1
  m_FlareFadeSpeed: 3
  m_HaloTexture: {fileID: 0}
  m_SpotCookie: {fileID: 10001, guid: 0000000000000000e000000000000000, type: 0}
  m_DefaultReflectionMode: 0
  m_DefaultReflectionResolution: 128
  m_ReflectionBounces: 1
  m_ReflectionIntensity: 1
  m_CustomReflection: {fileID: 0}
  m_Sun: {fileID: 0}
  m_IndirectSpecularColor: {r: 0, g: 0, b: 0, a: 1}
  m_UseRadianceAmbientProbe: 0
--- !u!157 &3
LightmapSettings:
  m_ObjectHideFlags: 0
  serializedVersion: 11
  m_GIWorkflowMode: 1
  m_GISettings:
    serializedVersion: 2
    m_BounceScale: 1
    m_IndirectOutputScale: 1
    m_AlbedoBoost: 1
    m_EnvironmentLightingMode: 0
    m_EnableBakedLightmaps: 1
    m_EnableRealtimeLightmaps: 1
  m_LightmapEditorSettings:
    serializedVersion: 10
    m_Resolution: 2
    m_BakeResolution: 40
    m_AtlasSize: 1024
    m_AO: 0
    m_AOMaxDistance: 1
    m_CompAOExponent: 1
    m_CompAOExponentDirect: 0
    m_Padding: 2
    m_LightmapParameters: {fileID: 0}
    m_LightmapsBakeMode: 1
    m_TextureCompression: 1
    m_FinalGather: 0
    m_FinalGatherFiltering: 1
    m_FinalGatherRayCount: 256
    m_ReflectionCompression: 2
    m_MixedBakeMode: 2
    m_BakeBackend: 1
    m_PVRSampling: 1
    m_PVRDirectSampleCount: 32
    m_PVRSampleCount: 500
    m_PVRBounces: 2
    m_PVRFilterTypeDirect: 0
    m_PVRFilterTypeIndirect: 0
    m_PVRFilterTypeAO: 0
    m_PVRFilteringMode: 1
    m_PVRCulling: 1
    m_PVRFilteringGaussRadiusDirect: 1
    m_PVRFilteringGaussRadiusIndirect: 5
    m_PVRFilteringGaussRadiusAO: 2
    m_PVRFilteringAtrousPositionSigmaDirect: 0.5
    m_PVRFilteringAtrousPositionSigmaIndirect: 2
    m_PVRFilteringAtrousPositionSigmaAO: 1
    m_ShowResolutionOverlay: 1
  m_LightingDataAsset: {fileID: 0}
  m_UseShadowmask: 1
--- !u!196 &4
NavMeshSettings:
  serializedVersion: 2
  m_ObjectHideFlags: 0
  m_BuildSettings:
    serializedVersion: 2
    agentTypeID: 0
    agentRadius: 0.5
    agentHeight: 2
    agentSlope: 45
    agentClimb: 0.4
    ledgeDropHeight: 0
    maxJumpAcrossDistance: 0
    minRegionArea: 2
    manualCellSize: 0
    cellSize: 0.16666667
    manualTileSize: 0
    tileSize: 256
    accuratePlacement: 0
    debug:
      m_Flags: 0
  m_NavMeshData: {fileID: 0}
--- !u!1001 &21064938
PrefabInstance:
  m_ObjectHideFlags: 0
  serializedVersion: 2
  m_Modification:
    m_TransformParent: {fileID: 0}
    m_Modifications:
    - target: {fileID: 21064939, guid: 7fb882d44b9dd224a8f80c7cde6a1e98, type: 3}
      propertyPath: m_Name
      value: Heavy Turret
      objectReference: {fileID: 0}
    - target: {fileID: 21064939, guid: 7fb882d44b9dd224a8f80c7cde6a1e98, type: 3}
      propertyPath: m_IsActive
      value: 0
      objectReference: {fileID: 0}
    - target: {fileID: 5016097505123231137, guid: 7fb882d44b9dd224a8f80c7cde6a1e98,
        type: 3}
      propertyPath: m_LocalPosition.x
      value: -70.44
      objectReference: {fileID: 0}
    - target: {fileID: 5016097505123231137, guid: 7fb882d44b9dd224a8f80c7cde6a1e98,
        type: 3}
      propertyPath: m_LocalPosition.y
      value: 4.51
      objectReference: {fileID: 0}
    - target: {fileID: 5016097505123231137, guid: 7fb882d44b9dd224a8f80c7cde6a1e98,
        type: 3}
      propertyPath: m_LocalPosition.z
      value: -128.73
      objectReference: {fileID: 0}
    - target: {fileID: 5016097505123231137, guid: 7fb882d44b9dd224a8f80c7cde6a1e98,
        type: 3}
      propertyPath: m_LocalRotation.x
      value: -0
      objectReference: {fileID: 0}
    - target: {fileID: 5016097505123231137, guid: 7fb882d44b9dd224a8f80c7cde6a1e98,
        type: 3}
      propertyPath: m_LocalRotation.y
      value: -0.45352852
      objectReference: {fileID: 0}
    - target: {fileID: 5016097505123231137, guid: 7fb882d44b9dd224a8f80c7cde6a1e98,
        type: 3}
      propertyPath: m_LocalRotation.z
      value: -0
      objectReference: {fileID: 0}
    - target: {fileID: 5016097505123231137, guid: 7fb882d44b9dd224a8f80c7cde6a1e98,
        type: 3}
      propertyPath: m_LocalRotation.w
      value: 0.8912418
      objectReference: {fileID: 0}
    - target: {fileID: 5016097505123231137, guid: 7fb882d44b9dd224a8f80c7cde6a1e98,
        type: 3}
      propertyPath: m_RootOrder
      value: 9
      objectReference: {fileID: 0}
    - target: {fileID: 5016097505123231137, guid: 7fb882d44b9dd224a8f80c7cde6a1e98,
        type: 3}
      propertyPath: m_LocalEulerAnglesHint.x
      value: 0
      objectReference: {fileID: 0}
    - target: {fileID: 5016097505123231137, guid: 7fb882d44b9dd224a8f80c7cde6a1e98,
        type: 3}
      propertyPath: m_LocalEulerAnglesHint.y
      value: -53.941
      objectReference: {fileID: 0}
    - target: {fileID: 5016097505123231137, guid: 7fb882d44b9dd224a8f80c7cde6a1e98,
        type: 3}
      propertyPath: m_LocalEulerAnglesHint.z
      value: 0
      objectReference: {fileID: 0}
    - target: {fileID: 67650129051160571, guid: 7fb882d44b9dd224a8f80c7cde6a1e98,
        type: 3}
      propertyPath: m_IsActive
      value: 1
      objectReference: {fileID: 0}
    m_RemovedComponents: []
  m_SourcePrefab: {fileID: 100100000, guid: 7fb882d44b9dd224a8f80c7cde6a1e98, type: 3}
--- !u!1 &53368603
GameObject:
  m_ObjectHideFlags: 0
  m_CorrespondingSourceObject: {fileID: 0}
  m_PrefabInstance: {fileID: 0}
  m_PrefabAsset: {fileID: 0}
  serializedVersion: 6
  m_Component:
  - component: {fileID: 53368605}
  - component: {fileID: 53368604}
  m_Layer: 0
  m_Name: T5
  m_TagString: Untagged
  m_Icon: {fileID: 0}
  m_NavMeshLayer: 0
  m_StaticEditorFlags: 0
  m_IsActive: 1
--- !u!114 &53368604
MonoBehaviour:
  m_ObjectHideFlags: 0
  m_CorrespondingSourceObject: {fileID: 0}
  m_PrefabInstance: {fileID: 0}
  m_PrefabAsset: {fileID: 0}
  m_GameObject: {fileID: 53368603}
  m_Enabled: 1
  m_EditorHideFlags: 0
  m_Script: {fileID: 11500000, guid: d634ab4ea191c6a4497f8cb67e2b1efb, type: 3}
  m_Name: 
  m_EditorClassIdentifier: 
  radius: 5
  color: {r: 1, g: 0, b: 0, a: 1}
--- !u!4 &53368605
Transform:
  m_ObjectHideFlags: 0
  m_CorrespondingSourceObject: {fileID: 0}
  m_PrefabInstance: {fileID: 0}
  m_PrefabAsset: {fileID: 0}
  m_GameObject: {fileID: 53368603}
  m_LocalRotation: {x: -0, y: -0, z: -0, w: 1}
  m_LocalPosition: {x: 39, y: 0, z: -229}
  m_LocalScale: {x: 1, y: 1, z: 1}
  m_Children: []
  m_Father: {fileID: 2004378415}
  m_RootOrder: 4
  m_LocalEulerAnglesHint: {x: 0, y: 0, z: 0}
--- !u!1 &123101665
GameObject:
  m_ObjectHideFlags: 0
  m_CorrespondingSourceObject: {fileID: 0}
  m_PrefabInstance: {fileID: 0}
  m_PrefabAsset: {fileID: 0}
  serializedVersion: 6
  m_Component:
  - component: {fileID: 123101667}
  - component: {fileID: 123101666}
  m_Layer: 0
  m_Name: T9
  m_TagString: Untagged
  m_Icon: {fileID: 0}
  m_NavMeshLayer: 0
  m_StaticEditorFlags: 0
  m_IsActive: 1
--- !u!114 &123101666
MonoBehaviour:
  m_ObjectHideFlags: 0
  m_CorrespondingSourceObject: {fileID: 0}
  m_PrefabInstance: {fileID: 0}
  m_PrefabAsset: {fileID: 0}
  m_GameObject: {fileID: 123101665}
  m_Enabled: 1
  m_EditorHideFlags: 0
  m_Script: {fileID: 11500000, guid: d634ab4ea191c6a4497f8cb67e2b1efb, type: 3}
  m_Name: 
  m_EditorClassIdentifier: 
  radius: 5
  color: {r: 1, g: 0, b: 0, a: 1}
--- !u!4 &123101667
Transform:
  m_ObjectHideFlags: 0
  m_CorrespondingSourceObject: {fileID: 0}
  m_PrefabInstance: {fileID: 0}
  m_PrefabAsset: {fileID: 0}
  m_GameObject: {fileID: 123101665}
  m_LocalRotation: {x: -0, y: -0, z: -0, w: 1}
  m_LocalPosition: {x: -145, y: 0, z: -243}
  m_LocalScale: {x: 1, y: 1, z: 1}
  m_Children: []
  m_Father: {fileID: 2004378415}
  m_RootOrder: 8
  m_LocalEulerAnglesHint: {x: 0, y: 0, z: 0}
--- !u!1 &128614494
GameObject:
  m_ObjectHideFlags: 0
  m_CorrespondingSourceObject: {fileID: 0}
  m_PrefabInstance: {fileID: 0}
  m_PrefabAsset: {fileID: 0}
  serializedVersion: 6
  m_Component:
  - component: {fileID: 128614499}
  - component: {fileID: 128614498}
  - component: {fileID: 128614497}
  - component: {fileID: 128614496}
  - component: {fileID: 128614495}
  m_Layer: 12
  m_Name: Obstacle (4)
  m_TagString: Untagged
  m_Icon: {fileID: 0}
  m_NavMeshLayer: 0
  m_StaticEditorFlags: 0
  m_IsActive: 1
--- !u!114 &128614495
MonoBehaviour:
  m_ObjectHideFlags: 0
  m_CorrespondingSourceObject: {fileID: 0}
  m_PrefabInstance: {fileID: 0}
  m_PrefabAsset: {fileID: 0}
  m_GameObject: {fileID: 128614494}
  m_Enabled: 1
  m_EditorHideFlags: 0
  m_Script: {fileID: 11500000, guid: 44e50215b9f9162428c5355c36d32dc9, type: 3}
  m_Name: 
  m_EditorClassIdentifier: 
  radius: 8.66
--- !u!135 &128614496
SphereCollider:
  m_ObjectHideFlags: 0
  m_CorrespondingSourceObject: {fileID: 0}
  m_PrefabInstance: {fileID: 0}
  m_PrefabAsset: {fileID: 0}
  m_GameObject: {fileID: 128614494}
  m_Material: {fileID: 0}
  m_IsTrigger: 0
  m_Enabled: 1
  serializedVersion: 2
  m_Radius: 1.7
  m_Center: {x: 0, y: 0, z: 0}
--- !u!23 &128614497
MeshRenderer:
  m_ObjectHideFlags: 0
  m_CorrespondingSourceObject: {fileID: 0}
  m_PrefabInstance: {fileID: 0}
  m_PrefabAsset: {fileID: 0}
  m_GameObject: {fileID: 128614494}
  m_Enabled: 1
  m_CastShadows: 1
  m_ReceiveShadows: 1
  m_DynamicOccludee: 1
  m_MotionVectors: 1
  m_LightProbeUsage: 1
  m_ReflectionProbeUsage: 1
  m_RenderingLayerMask: 1
  m_RendererPriority: 0
  m_Materials:
  - {fileID: 2100000, guid: e727eccce0f2b1c408f8717db1dd174c, type: 2}
  m_StaticBatchInfo:
    firstSubMesh: 0
    subMeshCount: 0
  m_StaticBatchRoot: {fileID: 0}
  m_ProbeAnchor: {fileID: 0}
  m_LightProbeVolumeOverride: {fileID: 0}
  m_ScaleInLightmap: 1
  m_PreserveUVs: 0
  m_IgnoreNormalsForChartDetection: 0
  m_ImportantGI: 0
  m_StitchLightmapSeams: 0
  m_SelectedEditorRenderState: 3
  m_MinimumChartSize: 4
  m_AutoUVMaxDistance: 0.5
  m_AutoUVMaxAngle: 89
  m_LightmapParameters: {fileID: 0}
  m_SortingLayerID: 0
  m_SortingLayer: 0
  m_SortingOrder: 0
--- !u!33 &128614498
MeshFilter:
  m_ObjectHideFlags: 0
  m_CorrespondingSourceObject: {fileID: 0}
  m_PrefabInstance: {fileID: 0}
  m_PrefabAsset: {fileID: 0}
  m_GameObject: {fileID: 128614494}
  m_Mesh: {fileID: 10207, guid: 0000000000000000e000000000000000, type: 0}
--- !u!4 &128614499
Transform:
  m_ObjectHideFlags: 0
  m_CorrespondingSourceObject: {fileID: 0}
  m_PrefabInstance: {fileID: 0}
  m_PrefabAsset: {fileID: 0}
  m_GameObject: {fileID: 128614494}
  m_LocalRotation: {x: 0, y: 0, z: 0, w: 1}
  m_LocalPosition: {x: -347.60004, y: 1.4, z: -140.2}
  m_LocalScale: {x: 15, y: 15, z: 15}
  m_Children: []
  m_Father: {fileID: 0}
  m_RootOrder: 26
  m_LocalEulerAnglesHint: {x: 0, y: 0, z: 0}
--- !u!1 &131650887
GameObject:
  m_ObjectHideFlags: 0
  m_CorrespondingSourceObject: {fileID: 0}
  m_PrefabInstance: {fileID: 0}
  m_PrefabAsset: {fileID: 0}
  serializedVersion: 6
  m_Component:
  - component: {fileID: 131650889}
  - component: {fileID: 131650888}
  m_Layer: 0
  m_Name: MegaMind
  m_TagString: Untagged
  m_Icon: {fileID: 0}
  m_NavMeshLayer: 0
  m_StaticEditorFlags: 0
  m_IsActive: 1
--- !u!114 &131650888
MonoBehaviour:
  m_ObjectHideFlags: 0
  m_CorrespondingSourceObject: {fileID: 0}
  m_PrefabInstance: {fileID: 0}
  m_PrefabAsset: {fileID: 0}
  m_GameObject: {fileID: 131650887}
  m_Enabled: 1
  m_EditorHideFlags: 0
  m_Script: {fileID: 11500000, guid: eb1b21845ce60844599ac9596d7e2e0f, type: 3}
  m_Name: 
  m_EditorClassIdentifier: 
  numVehicles: 0
  vehicle: {fileID: 0}
  vehicles: []
  obstacles:
  - {fileID: 501956873}
  - {fileID: 408100175}
--- !u!4 &131650889
Transform:
  m_ObjectHideFlags: 0
  m_CorrespondingSourceObject: {fileID: 0}
  m_PrefabInstance: {fileID: 0}
  m_PrefabAsset: {fileID: 0}
  m_GameObject: {fileID: 131650887}
  m_LocalRotation: {x: 0, y: 0, z: 0, w: 1}
  m_LocalPosition: {x: -1.8412666, y: 30.102161, z: -99.64846}
  m_LocalScale: {x: 1, y: 1, z: 1}
  m_Children: []
  m_Father: {fileID: 0}
  m_RootOrder: 10
  m_LocalEulerAnglesHint: {x: 0, y: 0, z: 0}
--- !u!1 &184572352 stripped
GameObject:
  m_CorrespondingSourceObject: {fileID: 7528771037149672966, guid: 25c0023b9c55d8644b839e9552aeb2e6,
    type: 3}
  m_PrefabInstance: {fileID: 2788399073980036777}
  m_PrefabAsset: {fileID: 0}
--- !u!1 &202231064
GameObject:
  m_ObjectHideFlags: 0
  m_CorrespondingSourceObject: {fileID: 0}
  m_PrefabInstance: {fileID: 0}
  m_PrefabAsset: {fileID: 0}
  serializedVersion: 6
  m_Component:
  - component: {fileID: 202231066}
  - component: {fileID: 202231065}
  m_Layer: 0
  m_Name: T6
  m_TagString: Untagged
  m_Icon: {fileID: 0}
  m_NavMeshLayer: 0
  m_StaticEditorFlags: 0
  m_IsActive: 1
--- !u!114 &202231065
MonoBehaviour:
  m_ObjectHideFlags: 0
  m_CorrespondingSourceObject: {fileID: 0}
  m_PrefabInstance: {fileID: 0}
  m_PrefabAsset: {fileID: 0}
  m_GameObject: {fileID: 202231064}
  m_Enabled: 1
  m_EditorHideFlags: 0
  m_Script: {fileID: 11500000, guid: d634ab4ea191c6a4497f8cb67e2b1efb, type: 3}
  m_Name: 
  m_EditorClassIdentifier: 
  radius: 5
  color: {r: 1, g: 0, b: 0, a: 1}
--- !u!4 &202231066
Transform:
  m_ObjectHideFlags: 0
  m_CorrespondingSourceObject: {fileID: 0}
  m_PrefabInstance: {fileID: 0}
  m_PrefabAsset: {fileID: 0}
  m_GameObject: {fileID: 202231064}
  m_LocalRotation: {x: -0, y: -0, z: -0, w: 1}
  m_LocalPosition: {x: -124, y: 0, z: 75}
  m_LocalScale: {x: 1, y: 1, z: 1}
  m_Children: []
  m_Father: {fileID: 2004378415}
  m_RootOrder: 5
  m_LocalEulerAnglesHint: {x: 0, y: 0, z: 0}
--- !u!1 &228692975
GameObject:
  m_ObjectHideFlags: 0
  m_CorrespondingSourceObject: {fileID: 0}
  m_PrefabInstance: {fileID: 0}
  m_PrefabAsset: {fileID: 0}
  serializedVersion: 6
  m_Component:
  - component: {fileID: 228692976}
  - component: {fileID: 228692977}
  m_Layer: 0
  m_Name: T8
  m_TagString: Untagged
  m_Icon: {fileID: 0}
  m_NavMeshLayer: 0
  m_StaticEditorFlags: 0
  m_IsActive: 1
--- !u!4 &228692976
Transform:
  m_ObjectHideFlags: 0
  m_CorrespondingSourceObject: {fileID: 0}
  m_PrefabInstance: {fileID: 0}
  m_PrefabAsset: {fileID: 0}
  m_GameObject: {fileID: 228692975}
  m_LocalRotation: {x: -0, y: -0, z: -0, w: 1}
  m_LocalPosition: {x: -303, y: 0, z: -201}
  m_LocalScale: {x: 1, y: 1, z: 1}
  m_Children: []
  m_Father: {fileID: 2004378415}
  m_RootOrder: 7
  m_LocalEulerAnglesHint: {x: 0, y: 0, z: 0}
--- !u!114 &228692977
MonoBehaviour:
  m_ObjectHideFlags: 0
  m_CorrespondingSourceObject: {fileID: 0}
  m_PrefabInstance: {fileID: 0}
  m_PrefabAsset: {fileID: 0}
  m_GameObject: {fileID: 228692975}
  m_Enabled: 1
  m_EditorHideFlags: 0
  m_Script: {fileID: 11500000, guid: d634ab4ea191c6a4497f8cb67e2b1efb, type: 3}
  m_Name: 
  m_EditorClassIdentifier: 
  radius: 5
  color: {r: 1, g: 0, b: 0, a: 1}
--- !u!1001 &408100174
PrefabInstance:
  m_ObjectHideFlags: 0
  serializedVersion: 2
  m_Modification:
    m_TransformParent: {fileID: 0}
    m_Modifications:
    - target: {fileID: 1242936526, guid: 8ca8bea4b8c4f8a479c16f2b0f05a193, type: 3}
      propertyPath: m_Name
      value: ClusterRootCapital
      objectReference: {fileID: 0}
    - target: {fileID: 1242936536, guid: 8ca8bea4b8c4f8a479c16f2b0f05a193, type: 3}
      propertyPath: m_LocalPosition.x
      value: 43
      objectReference: {fileID: 0}
    - target: {fileID: 1242936536, guid: 8ca8bea4b8c4f8a479c16f2b0f05a193, type: 3}
      propertyPath: m_LocalPosition.y
      value: 10
      objectReference: {fileID: 0}
    - target: {fileID: 1242936536, guid: 8ca8bea4b8c4f8a479c16f2b0f05a193, type: 3}
      propertyPath: m_LocalPosition.z
      value: -235.1
      objectReference: {fileID: 0}
    - target: {fileID: 1242936536, guid: 8ca8bea4b8c4f8a479c16f2b0f05a193, type: 3}
      propertyPath: m_LocalRotation.x
      value: 0
      objectReference: {fileID: 0}
    - target: {fileID: 1242936536, guid: 8ca8bea4b8c4f8a479c16f2b0f05a193, type: 3}
      propertyPath: m_LocalRotation.y
      value: 0
      objectReference: {fileID: 0}
    - target: {fileID: 1242936536, guid: 8ca8bea4b8c4f8a479c16f2b0f05a193, type: 3}
      propertyPath: m_LocalRotation.z
      value: 0
      objectReference: {fileID: 0}
    - target: {fileID: 1242936536, guid: 8ca8bea4b8c4f8a479c16f2b0f05a193, type: 3}
      propertyPath: m_LocalRotation.w
      value: 1
      objectReference: {fileID: 0}
    - target: {fileID: 1242936536, guid: 8ca8bea4b8c4f8a479c16f2b0f05a193, type: 3}
      propertyPath: m_RootOrder
      value: 14
      objectReference: {fileID: 0}
    - target: {fileID: 1242936536, guid: 8ca8bea4b8c4f8a479c16f2b0f05a193, type: 3}
      propertyPath: m_LocalEulerAnglesHint.x
      value: 0
      objectReference: {fileID: 0}
    - target: {fileID: 1242936536, guid: 8ca8bea4b8c4f8a479c16f2b0f05a193, type: 3}
      propertyPath: m_LocalEulerAnglesHint.y
      value: 0
      objectReference: {fileID: 0}
    - target: {fileID: 1242936536, guid: 8ca8bea4b8c4f8a479c16f2b0f05a193, type: 3}
      propertyPath: m_LocalEulerAnglesHint.z
      value: 0
      objectReference: {fileID: 0}
    - target: {fileID: 1047021697, guid: 8ca8bea4b8c4f8a479c16f2b0f05a193, type: 3}
      propertyPath: clusterFather
      value: 
      objectReference: {fileID: 131650888}
    - target: {fileID: 1047021697, guid: 8ca8bea4b8c4f8a479c16f2b0f05a193, type: 3}
      propertyPath: target
      value: 
      objectReference: {fileID: 1370253921}
    - target: {fileID: 1047021697, guid: 8ca8bea4b8c4f8a479c16f2b0f05a193, type: 3}
      propertyPath: life
      value: 300
      objectReference: {fileID: 0}
    - target: {fileID: 1242936528, guid: 8ca8bea4b8c4f8a479c16f2b0f05a193, type: 3}
      propertyPath: bulletParent
      value: 
      objectReference: {fileID: 875572499}
    m_RemovedComponents: []
  m_SourcePrefab: {fileID: 100100000, guid: 8ca8bea4b8c4f8a479c16f2b0f05a193, type: 3}
--- !u!114 &408100175 stripped
MonoBehaviour:
  m_CorrespondingSourceObject: {fileID: 408100175, guid: 8ca8bea4b8c4f8a479c16f2b0f05a193,
    type: 3}
  m_PrefabInstance: {fileID: 408100174}
  m_PrefabAsset: {fileID: 0}
  m_GameObject: {fileID: 1242936526}
  m_Enabled: 1
  m_EditorHideFlags: 0
  m_Script: {fileID: 11500000, guid: 44e50215b9f9162428c5355c36d32dc9, type: 3}
  m_Name: 
  m_EditorClassIdentifier: 
--- !u!1 &419326919
GameObject:
  m_ObjectHideFlags: 0
  m_CorrespondingSourceObject: {fileID: 0}
  m_PrefabInstance: {fileID: 0}
  m_PrefabAsset: {fileID: 0}
  serializedVersion: 6
  m_Component:
  - component: {fileID: 419326921}
  - component: {fileID: 419326920}
  m_Layer: 0
  m_Name: T2
  m_TagString: Untagged
  m_Icon: {fileID: 0}
  m_NavMeshLayer: 0
  m_StaticEditorFlags: 0
  m_IsActive: 1
--- !u!114 &419326920
MonoBehaviour:
  m_ObjectHideFlags: 0
  m_CorrespondingSourceObject: {fileID: 0}
  m_PrefabInstance: {fileID: 0}
  m_PrefabAsset: {fileID: 0}
  m_GameObject: {fileID: 419326919}
  m_Enabled: 1
  m_EditorHideFlags: 0
  m_Script: {fileID: 11500000, guid: d634ab4ea191c6a4497f8cb67e2b1efb, type: 3}
  m_Name: 
  m_EditorClassIdentifier: 
  radius: 5
  color: {r: 1, g: 0, b: 0, a: 1}
--- !u!4 &419326921
Transform:
  m_ObjectHideFlags: 0
  m_CorrespondingSourceObject: {fileID: 0}
  m_PrefabInstance: {fileID: 0}
  m_PrefabAsset: {fileID: 0}
  m_GameObject: {fileID: 419326919}
  m_LocalRotation: {x: -0, y: -0, z: -0, w: 1}
  m_LocalPosition: {x: 44, y: 0, z: 62}
  m_LocalScale: {x: 1, y: 1, z: 1}
  m_Children: []
  m_Father: {fileID: 2004378415}
  m_RootOrder: 1
  m_LocalEulerAnglesHint: {x: 0, y: 0, z: 0}
--- !u!1001 &501956872
PrefabInstance:
  m_ObjectHideFlags: 0
  serializedVersion: 2
  m_Modification:
    m_TransformParent: {fileID: 0}
    m_Modifications:
    - target: {fileID: 1739112413249782443, guid: 5ab2dc72a37b66741bdcebf10f730629,
        type: 3}
      propertyPath: m_Name
      value: ClusterRoot
      objectReference: {fileID: 0}
    - target: {fileID: 7351978723433583502, guid: 5ab2dc72a37b66741bdcebf10f730629,
        type: 3}
      propertyPath: clusterFather
      value: 
      objectReference: {fileID: 131650888}
    - target: {fileID: 7351978723433583502, guid: 5ab2dc72a37b66741bdcebf10f730629,
        type: 3}
      propertyPath: target
      value: 
      objectReference: {fileID: 1370253921}
    - target: {fileID: 1739112413249782441, guid: 5ab2dc72a37b66741bdcebf10f730629,
        type: 3}
      propertyPath: m_LocalPosition.x
      value: -35.5
      objectReference: {fileID: 0}
    - target: {fileID: 1739112413249782441, guid: 5ab2dc72a37b66741bdcebf10f730629,
        type: 3}
      propertyPath: m_LocalPosition.y
      value: 10
      objectReference: {fileID: 0}
    - target: {fileID: 1739112413249782441, guid: 5ab2dc72a37b66741bdcebf10f730629,
        type: 3}
      propertyPath: m_LocalPosition.z
      value: -303.6
      objectReference: {fileID: 0}
    - target: {fileID: 1739112413249782441, guid: 5ab2dc72a37b66741bdcebf10f730629,
        type: 3}
      propertyPath: m_LocalRotation.x
      value: -0
      objectReference: {fileID: 0}
    - target: {fileID: 1739112413249782441, guid: 5ab2dc72a37b66741bdcebf10f730629,
        type: 3}
      propertyPath: m_LocalRotation.y
      value: -0
      objectReference: {fileID: 0}
    - target: {fileID: 1739112413249782441, guid: 5ab2dc72a37b66741bdcebf10f730629,
        type: 3}
      propertyPath: m_LocalRotation.z
      value: -0
      objectReference: {fileID: 0}
    - target: {fileID: 1739112413249782441, guid: 5ab2dc72a37b66741bdcebf10f730629,
        type: 3}
      propertyPath: m_LocalRotation.w
      value: 1
      objectReference: {fileID: 0}
    - target: {fileID: 1739112413249782441, guid: 5ab2dc72a37b66741bdcebf10f730629,
        type: 3}
      propertyPath: m_RootOrder
      value: 13
      objectReference: {fileID: 0}
    - target: {fileID: 1739112413249782441, guid: 5ab2dc72a37b66741bdcebf10f730629,
        type: 3}
      propertyPath: m_LocalEulerAnglesHint.x
      value: 0
      objectReference: {fileID: 0}
    - target: {fileID: 1739112413249782441, guid: 5ab2dc72a37b66741bdcebf10f730629,
        type: 3}
      propertyPath: m_LocalEulerAnglesHint.y
      value: 0
      objectReference: {fileID: 0}
    - target: {fileID: 1739112413249782441, guid: 5ab2dc72a37b66741bdcebf10f730629,
        type: 3}
      propertyPath: m_LocalEulerAnglesHint.z
      value: 0
      objectReference: {fileID: 0}
    - target: {fileID: 1739112413249782440, guid: 5ab2dc72a37b66741bdcebf10f730629,
        type: 3}
      propertyPath: obstacles.Array.data[0]
      value: 
      objectReference: {fileID: 864488374}
    - target: {fileID: 1739112413249782440, guid: 5ab2dc72a37b66741bdcebf10f730629,
        type: 3}
      propertyPath: obstacles.Array.data[1]
      value: 
      objectReference: {fileID: 663367074}
    - target: {fileID: 1739112413249782440, guid: 5ab2dc72a37b66741bdcebf10f730629,
        type: 3}
      propertyPath: obstacles.Array.data[2]
      value: 
      objectReference: {fileID: 1642164024}
    - target: {fileID: 1739112413249782440, guid: 5ab2dc72a37b66741bdcebf10f730629,
        type: 3}
      propertyPath: obstacles.Array.data[3]
      value: 
      objectReference: {fileID: 541529032}
    - target: {fileID: 1739112413249782440, guid: 5ab2dc72a37b66741bdcebf10f730629,
        type: 3}
      propertyPath: obstacles.Array.data[4]
      value: 
      objectReference: {fileID: 128614495}
    - target: {fileID: 1739112413249782440, guid: 5ab2dc72a37b66741bdcebf10f730629,
        type: 3}
      propertyPath: obstacles.Array.data[5]
      value: 
      objectReference: {fileID: 1640539139}
    - target: {fileID: 1739112413249782440, guid: 5ab2dc72a37b66741bdcebf10f730629,
        type: 3}
      propertyPath: obstacles.Array.data[6]
      value: 
      objectReference: {fileID: 2031977543}
    m_RemovedComponents: []
  m_SourcePrefab: {fileID: 100100000, guid: 5ab2dc72a37b66741bdcebf10f730629, type: 3}
--- !u!114 &501956873 stripped
MonoBehaviour:
  m_CorrespondingSourceObject: {fileID: 369456087, guid: 5ab2dc72a37b66741bdcebf10f730629,
    type: 3}
  m_PrefabInstance: {fileID: 501956872}
  m_PrefabAsset: {fileID: 0}
  m_GameObject: {fileID: 1577796327}
  m_Enabled: 1
  m_EditorHideFlags: 0
  m_Script: {fileID: 11500000, guid: 44e50215b9f9162428c5355c36d32dc9, type: 3}
  m_Name: 
  m_EditorClassIdentifier: 
--- !u!1 &512806680
GameObject:
  m_ObjectHideFlags: 0
  m_CorrespondingSourceObject: {fileID: 0}
  m_PrefabInstance: {fileID: 0}
  m_PrefabAsset: {fileID: 0}
  serializedVersion: 6
  m_Component:
  - component: {fileID: 512806682}
  - component: {fileID: 512806681}
  m_Layer: 0
  m_Name: EnemyBulletPooler
  m_TagString: EnemyBulletPooler
  m_Icon: {fileID: 0}
  m_NavMeshLayer: 0
  m_StaticEditorFlags: 0
  m_IsActive: 1
--- !u!114 &512806681
MonoBehaviour:
  m_ObjectHideFlags: 0
  m_CorrespondingSourceObject: {fileID: 0}
  m_PrefabInstance: {fileID: 0}
  m_PrefabAsset: {fileID: 0}
  m_GameObject: {fileID: 512806680}
  m_Enabled: 1
  m_EditorHideFlags: 0
  m_Script: {fileID: 11500000, guid: 6349b432699271b4a83c9ced7e3c3ce4, type: 3}
  m_Name: 
  m_EditorClassIdentifier: 
  pooledObject: {fileID: 8036311673385875424, guid: ad73b9731874652499691358f5ce690d,
    type: 3}
  pooledAmount: 50
  willGrow: 1
--- !u!4 &512806682
Transform:
  m_ObjectHideFlags: 0
  m_CorrespondingSourceObject: {fileID: 0}
  m_PrefabInstance: {fileID: 0}
  m_PrefabAsset: {fileID: 0}
  m_GameObject: {fileID: 512806680}
  m_LocalRotation: {x: 0, y: 0, z: 0, w: 1}
  m_LocalPosition: {x: 0, y: 0, z: 0}
  m_LocalScale: {x: 1, y: 1, z: 1}
  m_Children: []
  m_Father: {fileID: 0}
  m_RootOrder: 20
  m_LocalEulerAnglesHint: {x: 0, y: 0, z: 0}
--- !u!1001 &535702831
PrefabInstance:
  m_ObjectHideFlags: 0
  serializedVersion: 2
  m_Modification:
    m_TransformParent: {fileID: 0}
    m_Modifications:
    - target: {fileID: 8784299579232389120, guid: a944d798792c5d44e96eff88c3add852,
        type: 3}
      propertyPath: m_Name
      value: Planet
      objectReference: {fileID: 0}
    - target: {fileID: 1189159436409617078, guid: a944d798792c5d44e96eff88c3add852,
        type: 3}
      propertyPath: m_LocalPosition.x
      value: 175.7
      objectReference: {fileID: 0}
    - target: {fileID: 1189159436409617078, guid: a944d798792c5d44e96eff88c3add852,
        type: 3}
      propertyPath: m_LocalPosition.y
      value: 0
      objectReference: {fileID: 0}
    - target: {fileID: 1189159436409617078, guid: a944d798792c5d44e96eff88c3add852,
        type: 3}
      propertyPath: m_LocalPosition.z
      value: -97.9
      objectReference: {fileID: 0}
    - target: {fileID: 1189159436409617078, guid: a944d798792c5d44e96eff88c3add852,
        type: 3}
      propertyPath: m_LocalRotation.x
      value: -0.7071068
      objectReference: {fileID: 0}
    - target: {fileID: 1189159436409617078, guid: a944d798792c5d44e96eff88c3add852,
        type: 3}
      propertyPath: m_LocalRotation.y
      value: 0
      objectReference: {fileID: 0}
    - target: {fileID: 1189159436409617078, guid: a944d798792c5d44e96eff88c3add852,
        type: 3}
      propertyPath: m_LocalRotation.z
      value: -0
      objectReference: {fileID: 0}
    - target: {fileID: 1189159436409617078, guid: a944d798792c5d44e96eff88c3add852,
        type: 3}
      propertyPath: m_LocalRotation.w
      value: 0.7071067
      objectReference: {fileID: 0}
    - target: {fileID: 1189159436409617078, guid: a944d798792c5d44e96eff88c3add852,
        type: 3}
      propertyPath: m_RootOrder
      value: 6
      objectReference: {fileID: 0}
    - target: {fileID: 1189159436409617078, guid: a944d798792c5d44e96eff88c3add852,
        type: 3}
      propertyPath: m_LocalEulerAnglesHint.x
      value: 0
      objectReference: {fileID: 0}
    - target: {fileID: 1189159436409617078, guid: a944d798792c5d44e96eff88c3add852,
        type: 3}
      propertyPath: m_LocalEulerAnglesHint.y
      value: 0
      objectReference: {fileID: 0}
    - target: {fileID: 1189159436409617078, guid: a944d798792c5d44e96eff88c3add852,
        type: 3}
      propertyPath: m_LocalEulerAnglesHint.z
      value: 0
      objectReference: {fileID: 0}
    m_RemovedComponents: []
  m_SourcePrefab: {fileID: 100100000, guid: a944d798792c5d44e96eff88c3add852, type: 3}
--- !u!1 &541529031
GameObject:
  m_ObjectHideFlags: 0
  m_CorrespondingSourceObject: {fileID: 0}
  m_PrefabInstance: {fileID: 0}
  m_PrefabAsset: {fileID: 0}
  serializedVersion: 6
  m_Component:
  - component: {fileID: 541529036}
  - component: {fileID: 541529035}
  - component: {fileID: 541529034}
  - component: {fileID: 541529033}
  - component: {fileID: 541529032}
  m_Layer: 12
  m_Name: Obstacle (3)
  m_TagString: Untagged
  m_Icon: {fileID: 0}
  m_NavMeshLayer: 0
  m_StaticEditorFlags: 0
  m_IsActive: 1
--- !u!114 &541529032
MonoBehaviour:
  m_ObjectHideFlags: 0
  m_CorrespondingSourceObject: {fileID: 0}
  m_PrefabInstance: {fileID: 0}
  m_PrefabAsset: {fileID: 0}
  m_GameObject: {fileID: 541529031}
  m_Enabled: 1
  m_EditorHideFlags: 0
  m_Script: {fileID: 11500000, guid: 44e50215b9f9162428c5355c36d32dc9, type: 3}
  m_Name: 
  m_EditorClassIdentifier: 
  radius: 8.66
--- !u!135 &541529033
SphereCollider:
  m_ObjectHideFlags: 0
  m_CorrespondingSourceObject: {fileID: 0}
  m_PrefabInstance: {fileID: 0}
  m_PrefabAsset: {fileID: 0}
  m_GameObject: {fileID: 541529031}
  m_Material: {fileID: 0}
  m_IsTrigger: 0
  m_Enabled: 1
  serializedVersion: 2
  m_Radius: 1.7
  m_Center: {x: 0, y: 0, z: 0}
--- !u!23 &541529034
MeshRenderer:
  m_ObjectHideFlags: 0
  m_CorrespondingSourceObject: {fileID: 0}
  m_PrefabInstance: {fileID: 0}
  m_PrefabAsset: {fileID: 0}
  m_GameObject: {fileID: 541529031}
  m_Enabled: 1
  m_CastShadows: 1
  m_ReceiveShadows: 1
  m_DynamicOccludee: 1
  m_MotionVectors: 1
  m_LightProbeUsage: 1
  m_ReflectionProbeUsage: 1
  m_RenderingLayerMask: 1
  m_RendererPriority: 0
  m_Materials:
  - {fileID: 2100000, guid: e727eccce0f2b1c408f8717db1dd174c, type: 2}
  m_StaticBatchInfo:
    firstSubMesh: 0
    subMeshCount: 0
  m_StaticBatchRoot: {fileID: 0}
  m_ProbeAnchor: {fileID: 0}
  m_LightProbeVolumeOverride: {fileID: 0}
  m_ScaleInLightmap: 1
  m_PreserveUVs: 0
  m_IgnoreNormalsForChartDetection: 0
  m_ImportantGI: 0
  m_StitchLightmapSeams: 0
  m_SelectedEditorRenderState: 3
  m_MinimumChartSize: 4
  m_AutoUVMaxDistance: 0.5
  m_AutoUVMaxAngle: 89
  m_LightmapParameters: {fileID: 0}
  m_SortingLayerID: 0
  m_SortingLayer: 0
  m_SortingOrder: 0
--- !u!33 &541529035
MeshFilter:
  m_ObjectHideFlags: 0
  m_CorrespondingSourceObject: {fileID: 0}
  m_PrefabInstance: {fileID: 0}
  m_PrefabAsset: {fileID: 0}
  m_GameObject: {fileID: 541529031}
  m_Mesh: {fileID: 10207, guid: 0000000000000000e000000000000000, type: 0}
--- !u!4 &541529036
Transform:
  m_ObjectHideFlags: 0
  m_CorrespondingSourceObject: {fileID: 0}
  m_PrefabInstance: {fileID: 0}
  m_PrefabAsset: {fileID: 0}
  m_GameObject: {fileID: 541529031}
  m_LocalRotation: {x: 0, y: 0, z: 0, w: 1}
  m_LocalPosition: {x: -305.00003, y: 1.4, z: -62.4}
  m_LocalScale: {x: 15, y: 15, z: 15}
  m_Children: []
  m_Father: {fileID: 0}
  m_RootOrder: 25
  m_LocalEulerAnglesHint: {x: 0, y: 0, z: 0}
--- !u!1 &663367073
GameObject:
  m_ObjectHideFlags: 0
  m_CorrespondingSourceObject: {fileID: 0}
  m_PrefabInstance: {fileID: 0}
  m_PrefabAsset: {fileID: 0}
  serializedVersion: 6
  m_Component:
  - component: {fileID: 663367078}
  - component: {fileID: 663367077}
  - component: {fileID: 663367076}
  - component: {fileID: 663367075}
  - component: {fileID: 663367074}
  m_Layer: 12
  m_Name: Obstacle (1)
  m_TagString: Untagged
  m_Icon: {fileID: 0}
  m_NavMeshLayer: 0
  m_StaticEditorFlags: 0
  m_IsActive: 1
--- !u!114 &663367074
MonoBehaviour:
  m_ObjectHideFlags: 0
  m_CorrespondingSourceObject: {fileID: 0}
  m_PrefabInstance: {fileID: 0}
  m_PrefabAsset: {fileID: 0}
  m_GameObject: {fileID: 663367073}
  m_Enabled: 1
  m_EditorHideFlags: 0
  m_Script: {fileID: 11500000, guid: 44e50215b9f9162428c5355c36d32dc9, type: 3}
  m_Name: 
  m_EditorClassIdentifier: 
  radius: 8.66
--- !u!135 &663367075
SphereCollider:
  m_ObjectHideFlags: 0
  m_CorrespondingSourceObject: {fileID: 0}
  m_PrefabInstance: {fileID: 0}
  m_PrefabAsset: {fileID: 0}
  m_GameObject: {fileID: 663367073}
  m_Material: {fileID: 0}
  m_IsTrigger: 0
  m_Enabled: 1
  serializedVersion: 2
  m_Radius: 1.7
  m_Center: {x: 0, y: 0, z: 0}
--- !u!23 &663367076
MeshRenderer:
  m_ObjectHideFlags: 0
  m_CorrespondingSourceObject: {fileID: 0}
  m_PrefabInstance: {fileID: 0}
  m_PrefabAsset: {fileID: 0}
  m_GameObject: {fileID: 663367073}
  m_Enabled: 1
  m_CastShadows: 1
  m_ReceiveShadows: 1
  m_DynamicOccludee: 1
  m_MotionVectors: 1
  m_LightProbeUsage: 1
  m_ReflectionProbeUsage: 1
  m_RenderingLayerMask: 1
  m_RendererPriority: 0
  m_Materials:
  - {fileID: 2100000, guid: e727eccce0f2b1c408f8717db1dd174c, type: 2}
  m_StaticBatchInfo:
    firstSubMesh: 0
    subMeshCount: 0
  m_StaticBatchRoot: {fileID: 0}
  m_ProbeAnchor: {fileID: 0}
  m_LightProbeVolumeOverride: {fileID: 0}
  m_ScaleInLightmap: 1
  m_PreserveUVs: 0
  m_IgnoreNormalsForChartDetection: 0
  m_ImportantGI: 0
  m_StitchLightmapSeams: 0
  m_SelectedEditorRenderState: 3
  m_MinimumChartSize: 4
  m_AutoUVMaxDistance: 0.5
  m_AutoUVMaxAngle: 89
  m_LightmapParameters: {fileID: 0}
  m_SortingLayerID: 0
  m_SortingLayer: 0
  m_SortingOrder: 0
--- !u!33 &663367077
MeshFilter:
  m_ObjectHideFlags: 0
  m_CorrespondingSourceObject: {fileID: 0}
  m_PrefabInstance: {fileID: 0}
  m_PrefabAsset: {fileID: 0}
  m_GameObject: {fileID: 663367073}
  m_Mesh: {fileID: 10207, guid: 0000000000000000e000000000000000, type: 0}
--- !u!4 &663367078
Transform:
  m_ObjectHideFlags: 0
  m_CorrespondingSourceObject: {fileID: 0}
  m_PrefabInstance: {fileID: 0}
  m_PrefabAsset: {fileID: 0}
  m_GameObject: {fileID: 663367073}
  m_LocalRotation: {x: 0, y: 0, z: 0, w: 1}
  m_LocalPosition: {x: -500.7, y: 1.4, z: 60.7}
  m_LocalScale: {x: 15, y: 15, z: 15}
  m_Children: []
  m_Father: {fileID: 0}
  m_RootOrder: 23
  m_LocalEulerAnglesHint: {x: 0, y: 0, z: 0}
--- !u!1 &704053123
GameObject:
  m_ObjectHideFlags: 0
  m_CorrespondingSourceObject: {fileID: 0}
  m_PrefabInstance: {fileID: 0}
  m_PrefabAsset: {fileID: 0}
  serializedVersion: 6
  m_Component:
  - component: {fileID: 704053125}
  - component: {fileID: 704053124}
  m_Layer: 0
  m_Name: AllyBulletPooler
  m_TagString: AllyBulletPooler
  m_Icon: {fileID: 0}
  m_NavMeshLayer: 0
  m_StaticEditorFlags: 0
  m_IsActive: 1
--- !u!114 &704053124
MonoBehaviour:
  m_ObjectHideFlags: 0
  m_CorrespondingSourceObject: {fileID: 0}
  m_PrefabInstance: {fileID: 0}
  m_PrefabAsset: {fileID: 0}
  m_GameObject: {fileID: 704053123}
  m_Enabled: 1
  m_EditorHideFlags: 0
  m_Script: {fileID: 11500000, guid: 6349b432699271b4a83c9ced7e3c3ce4, type: 3}
  m_Name: 
  m_EditorClassIdentifier: 
  pooledObject: {fileID: 8036311673385875424, guid: 8cfe2094c2410c24eaf9beae30b11e7f,
    type: 3}
  pooledAmount: 50
  willGrow: 1
--- !u!4 &704053125
Transform:
  m_ObjectHideFlags: 0
  m_CorrespondingSourceObject: {fileID: 0}
  m_PrefabInstance: {fileID: 0}
  m_PrefabAsset: {fileID: 0}
  m_GameObject: {fileID: 704053123}
  m_LocalRotation: {x: 0, y: 0, z: 0, w: 1}
  m_LocalPosition: {x: 0, y: 0, z: 0}
  m_LocalScale: {x: 1, y: 1, z: 1}
  m_Children: []
  m_Father: {fileID: 0}
  m_RootOrder: 18
  m_LocalEulerAnglesHint: {x: 0, y: 0, z: 0}
--- !u!114 &750098341 stripped
MonoBehaviour:
  m_CorrespondingSourceObject: {fileID: 8784616218318390299, guid: bf93b2999c8f13b4fb66712718827822,
    type: 3}
  m_PrefabInstance: {fileID: 8784616218665767870}
  m_PrefabAsset: {fileID: 0}
  m_GameObject: {fileID: 0}
  m_Enabled: 1
  m_EditorHideFlags: 0
  m_Script: {fileID: 11500000, guid: f125d74548d9c3d40b45ff65837dd48a, type: 3}
  m_Name: 
  m_EditorClassIdentifier: 
--- !u!1001 &751050689
PrefabInstance:
  m_ObjectHideFlags: 0
  serializedVersion: 2
  m_Modification:
    m_TransformParent: {fileID: 0}
    m_Modifications:
    - target: {fileID: 3560002845602027386, guid: f5993fe692498b74eacf6c2025228135,
        type: 3}
      propertyPath: m_Name
      value: Asteroid
      objectReference: {fileID: 0}
    - target: {fileID: 1001679445289449138, guid: f5993fe692498b74eacf6c2025228135,
        type: 3}
      propertyPath: m_LocalPosition.x
      value: -92.7
      objectReference: {fileID: 0}
    - target: {fileID: 1001679445289449138, guid: f5993fe692498b74eacf6c2025228135,
        type: 3}
      propertyPath: m_LocalPosition.y
      value: 0
      objectReference: {fileID: 0}
    - target: {fileID: 1001679445289449138, guid: f5993fe692498b74eacf6c2025228135,
        type: 3}
      propertyPath: m_LocalPosition.z
      value: -115
      objectReference: {fileID: 0}
    - target: {fileID: 1001679445289449138, guid: f5993fe692498b74eacf6c2025228135,
        type: 3}
      propertyPath: m_LocalRotation.x
      value: -0.7071068
      objectReference: {fileID: 0}
    - target: {fileID: 1001679445289449138, guid: f5993fe692498b74eacf6c2025228135,
        type: 3}
      propertyPath: m_LocalRotation.y
      value: 0
      objectReference: {fileID: 0}
    - target: {fileID: 1001679445289449138, guid: f5993fe692498b74eacf6c2025228135,
        type: 3}
      propertyPath: m_LocalRotation.z
      value: -0
      objectReference: {fileID: 0}
    - target: {fileID: 1001679445289449138, guid: f5993fe692498b74eacf6c2025228135,
        type: 3}
      propertyPath: m_LocalRotation.w
      value: 0.7071067
      objectReference: {fileID: 0}
    - target: {fileID: 1001679445289449138, guid: f5993fe692498b74eacf6c2025228135,
        type: 3}
      propertyPath: m_RootOrder
      value: 7
      objectReference: {fileID: 0}
    - target: {fileID: 1001679445289449138, guid: f5993fe692498b74eacf6c2025228135,
        type: 3}
      propertyPath: m_LocalEulerAnglesHint.x
      value: 0
      objectReference: {fileID: 0}
    - target: {fileID: 1001679445289449138, guid: f5993fe692498b74eacf6c2025228135,
        type: 3}
      propertyPath: m_LocalEulerAnglesHint.y
      value: 0
      objectReference: {fileID: 0}
    - target: {fileID: 1001679445289449138, guid: f5993fe692498b74eacf6c2025228135,
        type: 3}
      propertyPath: m_LocalEulerAnglesHint.z
      value: 0
      objectReference: {fileID: 0}
    m_RemovedComponents: []
  m_SourcePrefab: {fileID: 100100000, guid: f5993fe692498b74eacf6c2025228135, type: 3}
--- !u!1 &752261531
GameObject:
  m_ObjectHideFlags: 0
  m_CorrespondingSourceObject: {fileID: 0}
  m_PrefabInstance: {fileID: 0}
  m_PrefabAsset: {fileID: 0}
  serializedVersion: 6
  m_Component:
  - component: {fileID: 752261532}
  - component: {fileID: 752261533}
  m_Layer: 0
  m_Name: T7
  m_TagString: Untagged
  m_Icon: {fileID: 0}
  m_NavMeshLayer: 0
  m_StaticEditorFlags: 0
  m_IsActive: 1
--- !u!4 &752261532
Transform:
  m_ObjectHideFlags: 0
  m_CorrespondingSourceObject: {fileID: 0}
  m_PrefabInstance: {fileID: 0}
  m_PrefabAsset: {fileID: 0}
  m_GameObject: {fileID: 752261531}
  m_LocalRotation: {x: -0, y: -0, z: -0, w: 1}
  m_LocalPosition: {x: -283, y: 0, z: 11}
  m_LocalScale: {x: 1, y: 1, z: 1}
  m_Children: []
  m_Father: {fileID: 2004378415}
  m_RootOrder: 6
  m_LocalEulerAnglesHint: {x: 0, y: 0, z: 0}
--- !u!114 &752261533
MonoBehaviour:
  m_ObjectHideFlags: 0
  m_CorrespondingSourceObject: {fileID: 0}
  m_PrefabInstance: {fileID: 0}
  m_PrefabAsset: {fileID: 0}
  m_GameObject: {fileID: 752261531}
  m_Enabled: 1
  m_EditorHideFlags: 0
  m_Script: {fileID: 11500000, guid: d634ab4ea191c6a4497f8cb67e2b1efb, type: 3}
  m_Name: 
  m_EditorClassIdentifier: 
  radius: 5
  color: {r: 1, g: 0, b: 0, a: 1}
--- !u!1 &829685786
GameObject:
  m_ObjectHideFlags: 0
  m_CorrespondingSourceObject: {fileID: 0}
  m_PrefabInstance: {fileID: 0}
  m_PrefabAsset: {fileID: 0}
  serializedVersion: 6
  m_Component:
  - component: {fileID: 829685787}
  m_Layer: 0
  m_Name: SpawnPoint1
  m_TagString: Untagged
  m_Icon: {fileID: 0}
  m_NavMeshLayer: 0
  m_StaticEditorFlags: 0
  m_IsActive: 1
--- !u!4 &829685787
Transform:
  m_ObjectHideFlags: 0
  m_CorrespondingSourceObject: {fileID: 0}
  m_PrefabInstance: {fileID: 0}
  m_PrefabAsset: {fileID: 0}
  m_GameObject: {fileID: 829685786}
  m_LocalRotation: {x: 0, y: 0, z: 0, w: 1}
  m_LocalPosition: {x: -47.4, y: -4.4, z: -234.6}
  m_LocalScale: {x: 1, y: 1, z: 1}
  m_Children: []
  m_Father: {fileID: 0}
  m_RootOrder: 16
  m_LocalEulerAnglesHint: {x: 0, y: 0, z: 0}
--- !u!1 &864488373
GameObject:
  m_ObjectHideFlags: 0
  m_CorrespondingSourceObject: {fileID: 0}
  m_PrefabInstance: {fileID: 0}
  m_PrefabAsset: {fileID: 0}
  serializedVersion: 6
  m_Component:
  - component: {fileID: 864488378}
  - component: {fileID: 864488377}
  - component: {fileID: 864488376}
  - component: {fileID: 864488375}
  - component: {fileID: 864488374}
  m_Layer: 12
  m_Name: Obstacle
  m_TagString: Untagged
  m_Icon: {fileID: 0}
  m_NavMeshLayer: 0
  m_StaticEditorFlags: 0
  m_IsActive: 1
--- !u!114 &864488374
MonoBehaviour:
  m_ObjectHideFlags: 0
  m_CorrespondingSourceObject: {fileID: 0}
  m_PrefabInstance: {fileID: 0}
  m_PrefabAsset: {fileID: 0}
  m_GameObject: {fileID: 864488373}
  m_Enabled: 1
  m_EditorHideFlags: 0
  m_Script: {fileID: 11500000, guid: 44e50215b9f9162428c5355c36d32dc9, type: 3}
  m_Name: 
  m_EditorClassIdentifier: 
  radius: 8.66
--- !u!135 &864488375
SphereCollider:
  m_ObjectHideFlags: 0
  m_CorrespondingSourceObject: {fileID: 0}
  m_PrefabInstance: {fileID: 0}
  m_PrefabAsset: {fileID: 0}
  m_GameObject: {fileID: 864488373}
  m_Material: {fileID: 0}
  m_IsTrigger: 0
  m_Enabled: 1
  serializedVersion: 2
  m_Radius: 1.7
  m_Center: {x: 0, y: 0, z: 0}
--- !u!23 &864488376
MeshRenderer:
  m_ObjectHideFlags: 0
  m_CorrespondingSourceObject: {fileID: 0}
  m_PrefabInstance: {fileID: 0}
  m_PrefabAsset: {fileID: 0}
  m_GameObject: {fileID: 864488373}
  m_Enabled: 1
  m_CastShadows: 1
  m_ReceiveShadows: 1
  m_DynamicOccludee: 1
  m_MotionVectors: 1
  m_LightProbeUsage: 1
  m_ReflectionProbeUsage: 1
  m_RenderingLayerMask: 1
  m_RendererPriority: 0
  m_Materials:
  - {fileID: 2100000, guid: e727eccce0f2b1c408f8717db1dd174c, type: 2}
  m_StaticBatchInfo:
    firstSubMesh: 0
    subMeshCount: 0
  m_StaticBatchRoot: {fileID: 0}
  m_ProbeAnchor: {fileID: 0}
  m_LightProbeVolumeOverride: {fileID: 0}
  m_ScaleInLightmap: 1
  m_PreserveUVs: 0
  m_IgnoreNormalsForChartDetection: 0
  m_ImportantGI: 0
  m_StitchLightmapSeams: 0
  m_SelectedEditorRenderState: 3
  m_MinimumChartSize: 4
  m_AutoUVMaxDistance: 0.5
  m_AutoUVMaxAngle: 89
  m_LightmapParameters: {fileID: 0}
  m_SortingLayerID: 0
  m_SortingLayer: 0
  m_SortingOrder: 0
--- !u!33 &864488377
MeshFilter:
  m_ObjectHideFlags: 0
  m_CorrespondingSourceObject: {fileID: 0}
  m_PrefabInstance: {fileID: 0}
  m_PrefabAsset: {fileID: 0}
  m_GameObject: {fileID: 864488373}
  m_Mesh: {fileID: 10207, guid: 0000000000000000e000000000000000, type: 0}
--- !u!4 &864488378
Transform:
  m_ObjectHideFlags: 0
  m_CorrespondingSourceObject: {fileID: 0}
  m_PrefabInstance: {fileID: 0}
  m_PrefabAsset: {fileID: 0}
  m_GameObject: {fileID: 864488373}
  m_LocalRotation: {x: 0, y: 0, z: 0, w: 1}
  m_LocalPosition: {x: -562.30005, y: 1.4, z: -79.8}
  m_LocalScale: {x: 15, y: 15, z: 15}
  m_Children: []
  m_Father: {fileID: 0}
  m_RootOrder: 22
  m_LocalEulerAnglesHint: {x: 0, y: 0, z: 0}
--- !u!1 &875572499
GameObject:
  m_ObjectHideFlags: 0
  m_CorrespondingSourceObject: {fileID: 0}
  m_PrefabInstance: {fileID: 0}
  m_PrefabAsset: {fileID: 0}
  serializedVersion: 6
  m_Component:
  - component: {fileID: 875572501}
  - component: {fileID: 875572500}
  m_Layer: 0
  m_Name: EnemyBulletPoolerCapital
  m_TagString: EnemyBulletPooler
  m_Icon: {fileID: 0}
  m_NavMeshLayer: 0
  m_StaticEditorFlags: 0
  m_IsActive: 1
--- !u!114 &875572500
MonoBehaviour:
  m_ObjectHideFlags: 0
  m_CorrespondingSourceObject: {fileID: 0}
  m_PrefabInstance: {fileID: 0}
  m_PrefabAsset: {fileID: 0}
  m_GameObject: {fileID: 875572499}
  m_Enabled: 1
  m_EditorHideFlags: 0
  m_Script: {fileID: 11500000, guid: 6349b432699271b4a83c9ced7e3c3ce4, type: 3}
  m_Name: 
  m_EditorClassIdentifier: 
  pooledObject: {fileID: 8036311673385875424, guid: 755071cfe0f78ef449b8edbaa28598ca,
    type: 3}
  pooledAmount: 50
  willGrow: 1
--- !u!4 &875572501
Transform:
  m_ObjectHideFlags: 0
  m_CorrespondingSourceObject: {fileID: 0}
  m_PrefabInstance: {fileID: 0}
  m_PrefabAsset: {fileID: 0}
  m_GameObject: {fileID: 875572499}
  m_LocalRotation: {x: 0, y: 0, z: 0, w: 1}
  m_LocalPosition: {x: 0, y: 0, z: 0}
  m_LocalScale: {x: 1, y: 1, z: 1}
  m_Children: []
  m_Father: {fileID: 0}
  m_RootOrder: 21
  m_LocalEulerAnglesHint: {x: 0, y: 0, z: 0}
--- !u!114 &891727381 stripped
MonoBehaviour:
  m_CorrespondingSourceObject: {fileID: 1396356460884462454, guid: 8d769d76dd1523342b4320c477b7cd80,
    type: 3}
  m_PrefabInstance: {fileID: 1396356461641180515}
  m_PrefabAsset: {fileID: 0}
  m_GameObject: {fileID: 0}
  m_Enabled: 1
  m_EditorHideFlags: 0
  m_Script: {fileID: 11500000, guid: cf96f360657afe14098f3e1939832d0e, type: 3}
  m_Name: 
  m_EditorClassIdentifier: 
--- !u!114 &891727382 stripped
MonoBehaviour:
  m_CorrespondingSourceObject: {fileID: 1396356460884462453, guid: 8d769d76dd1523342b4320c477b7cd80,
    type: 3}
  m_PrefabInstance: {fileID: 1396356461641180515}
  m_PrefabAsset: {fileID: 0}
  m_GameObject: {fileID: 0}
  m_Enabled: 1
  m_EditorHideFlags: 0
  m_Script: {fileID: 11500000, guid: 7689339ca1c8a514db846db752db9305, type: 3}
  m_Name: 
  m_EditorClassIdentifier: 
--- !u!1 &921783609
GameObject:
  m_ObjectHideFlags: 0
  m_CorrespondingSourceObject: {fileID: 0}
  m_PrefabInstance: {fileID: 0}
  m_PrefabAsset: {fileID: 0}
  serializedVersion: 6
  m_Component:
  - component: {fileID: 921783612}
  - component: {fileID: 921783611}
  - component: {fileID: 921783610}
  m_Layer: 0
  m_Name: EventSystem
  m_TagString: Untagged
  m_Icon: {fileID: 0}
  m_NavMeshLayer: 0
  m_StaticEditorFlags: 0
  m_IsActive: 1
--- !u!114 &921783610
MonoBehaviour:
  m_ObjectHideFlags: 0
  m_CorrespondingSourceObject: {fileID: 0}
  m_PrefabInstance: {fileID: 0}
  m_PrefabAsset: {fileID: 0}
  m_GameObject: {fileID: 921783609}
  m_Enabled: 1
  m_EditorHideFlags: 0
  m_Script: {fileID: 1077351063, guid: f70555f144d8491a825f0804e09c671c, type: 3}
  m_Name: 
  m_EditorClassIdentifier: 
  m_HorizontalAxis: Horizontal
  m_VerticalAxis: Vertical
  m_SubmitButton: Submit
  m_CancelButton: Cancel
  m_InputActionsPerSecond: 10
  m_RepeatDelay: 0.5
  m_ForceModuleActive: 0
--- !u!114 &921783611
MonoBehaviour:
  m_ObjectHideFlags: 0
  m_CorrespondingSourceObject: {fileID: 0}
  m_PrefabInstance: {fileID: 0}
  m_PrefabAsset: {fileID: 0}
  m_GameObject: {fileID: 921783609}
  m_Enabled: 1
  m_EditorHideFlags: 0
  m_Script: {fileID: -619905303, guid: f70555f144d8491a825f0804e09c671c, type: 3}
  m_Name: 
  m_EditorClassIdentifier: 
  m_FirstSelected: {fileID: 0}
  m_sendNavigationEvents: 1
  m_DragThreshold: 10
--- !u!4 &921783612
Transform:
  m_ObjectHideFlags: 0
  m_CorrespondingSourceObject: {fileID: 0}
  m_PrefabInstance: {fileID: 0}
  m_PrefabAsset: {fileID: 0}
  m_GameObject: {fileID: 921783609}
  m_LocalRotation: {x: 0, y: 0, z: 0, w: 1}
  m_LocalPosition: {x: 0, y: 0, z: 0}
  m_LocalScale: {x: 1, y: 1, z: 1}
  m_Children: []
  m_Father: {fileID: 0}
  m_RootOrder: 2
  m_LocalEulerAnglesHint: {x: 0, y: 0, z: 0}
--- !u!114 &1047021697 stripped
MonoBehaviour:
  m_CorrespondingSourceObject: {fileID: 1047021697, guid: 8ca8bea4b8c4f8a479c16f2b0f05a193,
    type: 3}
  m_PrefabInstance: {fileID: 408100174}
  m_PrefabAsset: {fileID: 0}
  m_GameObject: {fileID: 1242936526}
  m_Enabled: 1
  m_EditorHideFlags: 0
  m_Script: {fileID: 11500000, guid: 2da82931570485441a2e737539e90ad9, type: 3}
  m_Name: 
  m_EditorClassIdentifier: 
--- !u!1 &1067198071
GameObject:
  m_ObjectHideFlags: 0
  m_CorrespondingSourceObject: {fileID: 0}
  m_PrefabInstance: {fileID: 0}
  m_PrefabAsset: {fileID: 0}
  serializedVersion: 6
  m_Component:
  - component: {fileID: 1067198072}
  m_Layer: 0
  m_Name: Top
  m_TagString: Untagged
  m_Icon: {fileID: 0}
  m_NavMeshLayer: 0
  m_StaticEditorFlags: 0
  m_IsActive: 1
--- !u!4 &1067198072
Transform:
  m_ObjectHideFlags: 0
  m_CorrespondingSourceObject: {fileID: 0}
  m_PrefabInstance: {fileID: 0}
  m_PrefabAsset: {fileID: 0}
  m_GameObject: {fileID: 1067198071}
  m_LocalRotation: {x: -0, y: -0, z: -0, w: 1}
  m_LocalPosition: {x: 39.96975, y: 239.22806, z: -110.719986}
  m_LocalScale: {x: 1, y: 1, z: 1}
  m_Children: []
  m_Father: {fileID: 1961609350}
  m_RootOrder: 2
  m_LocalEulerAnglesHint: {x: 0, y: 0, z: 0}
--- !u!1 &1096595255
GameObject:
  m_ObjectHideFlags: 0
  m_CorrespondingSourceObject: {fileID: 0}
  m_PrefabInstance: {fileID: 0}
  m_PrefabAsset: {fileID: 0}
  serializedVersion: 6
  m_Component:
  - component: {fileID: 1096595257}
  - component: {fileID: 1096595256}
  m_Layer: 0
  m_Name: T3
  m_TagString: Untagged
  m_Icon: {fileID: 0}
  m_NavMeshLayer: 0
  m_StaticEditorFlags: 0
  m_IsActive: 1
--- !u!114 &1096595256
MonoBehaviour:
  m_ObjectHideFlags: 0
  m_CorrespondingSourceObject: {fileID: 0}
  m_PrefabInstance: {fileID: 0}
  m_PrefabAsset: {fileID: 0}
  m_GameObject: {fileID: 1096595255}
  m_Enabled: 1
  m_EditorHideFlags: 0
  m_Script: {fileID: 11500000, guid: d634ab4ea191c6a4497f8cb67e2b1efb, type: 3}
  m_Name: 
  m_EditorClassIdentifier: 
  radius: 5
  color: {r: 1, g: 0, b: 0, a: 1}
--- !u!4 &1096595257
Transform:
  m_ObjectHideFlags: 0
  m_CorrespondingSourceObject: {fileID: 0}
  m_PrefabInstance: {fileID: 0}
  m_PrefabAsset: {fileID: 0}
  m_GameObject: {fileID: 1096595255}
  m_LocalRotation: {x: -0, y: -0, z: -0, w: 1}
  m_LocalPosition: {x: 287, y: 0, z: 11}
  m_LocalScale: {x: 1, y: 1, z: 1}
  m_Children: []
  m_Father: {fileID: 2004378415}
  m_RootOrder: 2
  m_LocalEulerAnglesHint: {x: 0, y: 0, z: 0}
--- !u!1 &1225839544
GameObject:
  m_ObjectHideFlags: 0
  m_CorrespondingSourceObject: {fileID: 0}
  m_PrefabInstance: {fileID: 0}
  m_PrefabAsset: {fileID: 0}
  serializedVersion: 6
  m_Component:
  - component: {fileID: 1225839545}
  m_Layer: 0
  m_Name: SpawnPoint2
  m_TagString: Untagged
  m_Icon: {fileID: 0}
  m_NavMeshLayer: 0
  m_StaticEditorFlags: 0
  m_IsActive: 1
--- !u!4 &1225839545
Transform:
  m_ObjectHideFlags: 0
  m_CorrespondingSourceObject: {fileID: 0}
  m_PrefabInstance: {fileID: 0}
  m_PrefabAsset: {fileID: 0}
  m_GameObject: {fileID: 1225839544}
  m_LocalRotation: {x: 0, y: 0, z: 0, w: 1}
  m_LocalPosition: {x: 37, y: -4.4, z: -262.8}
  m_LocalScale: {x: 1, y: 1, z: 1}
  m_Children: []
  m_Father: {fileID: 0}
  m_RootOrder: 17
  m_LocalEulerAnglesHint: {x: 0, y: 0, z: 0}
--- !u!1 &1242936526 stripped
GameObject:
  m_CorrespondingSourceObject: {fileID: 1242936526, guid: 8ca8bea4b8c4f8a479c16f2b0f05a193,
    type: 3}
  m_PrefabInstance: {fileID: 408100174}
  m_PrefabAsset: {fileID: 0}
--- !u!1 &1243916346
GameObject:
  m_ObjectHideFlags: 0
  m_CorrespondingSourceObject: {fileID: 0}
  m_PrefabInstance: {fileID: 0}
  m_PrefabAsset: {fileID: 0}
  serializedVersion: 6
  m_Component:
  - component: {fileID: 1243916348}
  - component: {fileID: 1243916347}
  m_Layer: 0
  m_Name: Directional Light
  m_TagString: Untagged
  m_Icon: {fileID: 0}
  m_NavMeshLayer: 0
  m_StaticEditorFlags: 0
  m_IsActive: 1
--- !u!108 &1243916347
Light:
  m_ObjectHideFlags: 0
  m_CorrespondingSourceObject: {fileID: 0}
  m_PrefabInstance: {fileID: 0}
  m_PrefabAsset: {fileID: 0}
  m_GameObject: {fileID: 1243916346}
  m_Enabled: 1
  serializedVersion: 8
  m_Type: 1
  m_Color: {r: 1, g: 1, b: 1, a: 1}
  m_Intensity: 1
  m_Range: 10
  m_SpotAngle: 30
  m_CookieSize: 10
  m_Shadows:
    m_Type: 0
    m_Resolution: -1
    m_CustomResolution: -1
    m_Strength: 1
    m_Bias: 0.05
    m_NormalBias: 0.4
    m_NearPlane: 0.2
  m_Cookie: {fileID: 0}
  m_DrawHalo: 0
  m_Flare: {fileID: 0}
  m_RenderMode: 0
  m_CullingMask:
    serializedVersion: 2
    m_Bits: 4294967295
  m_Lightmapping: 4
  m_LightShadowCasterMode: 0
  m_AreaSize: {x: 1, y: 1}
  m_BounceIntensity: 1
  m_ColorTemperature: 6570
  m_UseColorTemperature: 0
  m_ShadowRadius: 0
  m_ShadowAngle: 0
--- !u!4 &1243916348
Transform:
  m_ObjectHideFlags: 0
  m_CorrespondingSourceObject: {fileID: 0}
  m_PrefabInstance: {fileID: 0}
  m_PrefabAsset: {fileID: 0}
  m_GameObject: {fileID: 1243916346}
  m_LocalRotation: {x: 0.40821788, y: -0.23456968, z: 0.10938163, w: 0.8754261}
  m_LocalPosition: {x: 209.5, y: 56.155884, z: -225.97052}
  m_LocalScale: {x: 1, y: 1, z: 1}
  m_Children: []
  m_Father: {fileID: 0}
  m_RootOrder: 3
  m_LocalEulerAnglesHint: {x: 50, y: -30, z: 0}
--- !u!1 &1261793784
GameObject:
  m_ObjectHideFlags: 0
  m_CorrespondingSourceObject: {fileID: 0}
  m_PrefabInstance: {fileID: 0}
  m_PrefabAsset: {fileID: 0}
  serializedVersion: 6
  m_Component:
  - component: {fileID: 1261793785}
  m_Layer: 0
  m_Name: Bottom
  m_TagString: Untagged
  m_Icon: {fileID: 0}
  m_NavMeshLayer: 0
  m_StaticEditorFlags: 0
  m_IsActive: 1
--- !u!4 &1261793785
Transform:
  m_ObjectHideFlags: 0
  m_CorrespondingSourceObject: {fileID: 0}
  m_PrefabInstance: {fileID: 0}
  m_PrefabAsset: {fileID: 0}
  m_GameObject: {fileID: 1261793784}
  m_LocalRotation: {x: -0, y: -0, z: -0, w: 1}
  m_LocalPosition: {x: 39.96975, y: 239.22806, z: -258.52}
  m_LocalScale: {x: 1, y: 1, z: 1}
  m_Children: []
  m_Father: {fileID: 1961609350}
  m_RootOrder: 3
  m_LocalEulerAnglesHint: {x: 0, y: 0, z: 0}
--- !u!1 &1370253921
GameObject:
  m_ObjectHideFlags: 0
  m_CorrespondingSourceObject: {fileID: 0}
  m_PrefabInstance: {fileID: 0}
  m_PrefabAsset: {fileID: 0}
  serializedVersion: 6
  m_Component:
  - component: {fileID: 1370253923}
  - component: {fileID: 1370253922}
  m_Layer: 0
  m_Name: T1
  m_TagString: Untagged
  m_Icon: {fileID: 0}
  m_NavMeshLayer: 0
  m_StaticEditorFlags: 0
  m_IsActive: 1
--- !u!114 &1370253922
MonoBehaviour:
  m_ObjectHideFlags: 0
  m_CorrespondingSourceObject: {fileID: 0}
  m_PrefabInstance: {fileID: 0}
  m_PrefabAsset: {fileID: 0}
  m_GameObject: {fileID: 1370253921}
  m_Enabled: 1
  m_EditorHideFlags: 0
  m_Script: {fileID: 11500000, guid: d634ab4ea191c6a4497f8cb67e2b1efb, type: 3}
  m_Name: 
  m_EditorClassIdentifier: 
  radius: 5
  color: {r: 1, g: 0, b: 0, a: 1}
--- !u!4 &1370253923
Transform:
  m_ObjectHideFlags: 0
  m_CorrespondingSourceObject: {fileID: 0}
  m_PrefabInstance: {fileID: 0}
  m_PrefabAsset: {fileID: 0}
  m_GameObject: {fileID: 1370253921}
  m_LocalRotation: {x: -0, y: -0, z: -0, w: 1}
  m_LocalPosition: {x: -28, y: 0, z: -66}
  m_LocalScale: {x: 1, y: 1, z: 1}
  m_Children: []
  m_Father: {fileID: 2004378415}
  m_RootOrder: 0
  m_LocalEulerAnglesHint: {x: 0, y: 0, z: 0}
--- !u!1 &1376226796
GameObject:
  m_ObjectHideFlags: 0
  m_CorrespondingSourceObject: {fileID: 0}
  m_PrefabInstance: {fileID: 0}
  m_PrefabAsset: {fileID: 0}
  serializedVersion: 6
  m_Component:
  - component: {fileID: 1376226798}
  - component: {fileID: 1376226797}
  m_Layer: 11
  m_Name: Plane
  m_TagString: Untagged
  m_Icon: {fileID: 0}
  m_NavMeshLayer: 0
  m_StaticEditorFlags: 0
  m_IsActive: 1
--- !u!64 &1376226797
MeshCollider:
  m_ObjectHideFlags: 0
  m_CorrespondingSourceObject: {fileID: 0}
  m_PrefabInstance: {fileID: 0}
  m_PrefabAsset: {fileID: 0}
  m_GameObject: {fileID: 1376226796}
  m_Material: {fileID: 0}
  m_IsTrigger: 1
  m_Enabled: 1
  serializedVersion: 3
  m_Convex: 1
  m_CookingOptions: 14
  m_Mesh: {fileID: 10209, guid: 0000000000000000e000000000000000, type: 0}
--- !u!4 &1376226798
Transform:
  m_ObjectHideFlags: 0
  m_CorrespondingSourceObject: {fileID: 0}
  m_PrefabInstance: {fileID: 0}
  m_PrefabAsset: {fileID: 0}
  m_GameObject: {fileID: 1376226796}
  m_LocalRotation: {x: 0, y: 0, z: 0, w: 1}
  m_LocalPosition: {x: 44.7, y: 0, z: -215.46945}
  m_LocalScale: {x: 100, y: 1, z: 100}
  m_Children: []
  m_Father: {fileID: 0}
  m_RootOrder: 12
  m_LocalEulerAnglesHint: {x: 0, y: 0, z: 0}
--- !u!1 &1571038417
GameObject:
  m_ObjectHideFlags: 0
  m_CorrespondingSourceObject: {fileID: 0}
  m_PrefabInstance: {fileID: 0}
  m_PrefabAsset: {fileID: 0}
  serializedVersion: 6
  m_Component:
  - component: {fileID: 1571038419}
  - component: {fileID: 1571038418}
  m_Layer: 0
  m_Name: AllyHeavyBulletPooler
  m_TagString: AllyHeavyBulletPooler
  m_Icon: {fileID: 0}
  m_NavMeshLayer: 0
  m_StaticEditorFlags: 0
  m_IsActive: 1
--- !u!114 &1571038418
MonoBehaviour:
  m_ObjectHideFlags: 0
  m_CorrespondingSourceObject: {fileID: 0}
  m_PrefabInstance: {fileID: 0}
  m_PrefabAsset: {fileID: 0}
  m_GameObject: {fileID: 1571038417}
  m_Enabled: 1
  m_EditorHideFlags: 0
  m_Script: {fileID: 11500000, guid: 6349b432699271b4a83c9ced7e3c3ce4, type: 3}
  m_Name: 
  m_EditorClassIdentifier: 
  pooledObject: {fileID: 8036311673385875424, guid: c0086693e6cce7d41ac4977ae83d6c9d,
    type: 3}
  pooledAmount: 50
  willGrow: 1
--- !u!4 &1571038419
Transform:
  m_ObjectHideFlags: 0
  m_CorrespondingSourceObject: {fileID: 0}
  m_PrefabInstance: {fileID: 0}
  m_PrefabAsset: {fileID: 0}
  m_GameObject: {fileID: 1571038417}
  m_LocalRotation: {x: 0, y: 0, z: 0, w: 1}
  m_LocalPosition: {x: 0, y: 0, z: 0}
  m_LocalScale: {x: 1, y: 1, z: 1}
  m_Children: []
  m_Father: {fileID: 0}
  m_RootOrder: 19
  m_LocalEulerAnglesHint: {x: 0, y: 0, z: 0}
--- !u!1 &1577796327 stripped
GameObject:
  m_CorrespondingSourceObject: {fileID: 1739112413249782443, guid: 5ab2dc72a37b66741bdcebf10f730629,
    type: 3}
  m_PrefabInstance: {fileID: 501956872}
  m_PrefabAsset: {fileID: 0}
--- !u!114 &1577796333 stripped
MonoBehaviour:
  m_CorrespondingSourceObject: {fileID: 7351978723433583502, guid: 5ab2dc72a37b66741bdcebf10f730629,
    type: 3}
  m_PrefabInstance: {fileID: 501956872}
  m_PrefabAsset: {fileID: 0}
  m_GameObject: {fileID: 1577796327}
  m_Enabled: 1
  m_EditorHideFlags: 0
  m_Script: {fileID: 11500000, guid: 2da82931570485441a2e737539e90ad9, type: 3}
  m_Name: 
  m_EditorClassIdentifier: 
--- !u!1 &1592835475
GameObject:
  m_ObjectHideFlags: 0
  m_CorrespondingSourceObject: {fileID: 0}
  m_PrefabInstance: {fileID: 0}
  m_PrefabAsset: {fileID: 0}
  serializedVersion: 6
  m_Component:
  - component: {fileID: 1592835477}
  - component: {fileID: 1592835476}
  m_Layer: 0
  m_Name: T4
  m_TagString: Untagged
  m_Icon: {fileID: 0}
  m_NavMeshLayer: 0
  m_StaticEditorFlags: 0
  m_IsActive: 1
--- !u!114 &1592835476
MonoBehaviour:
  m_ObjectHideFlags: 0
  m_CorrespondingSourceObject: {fileID: 0}
  m_PrefabInstance: {fileID: 0}
  m_PrefabAsset: {fileID: 0}
  m_GameObject: {fileID: 1592835475}
  m_Enabled: 1
  m_EditorHideFlags: 0
  m_Script: {fileID: 11500000, guid: d634ab4ea191c6a4497f8cb67e2b1efb, type: 3}
  m_Name: 
  m_EditorClassIdentifier: 
  radius: 5
  color: {r: 1, g: 0, b: 0, a: 1}
--- !u!4 &1592835477
Transform:
  m_ObjectHideFlags: 0
  m_CorrespondingSourceObject: {fileID: 0}
  m_PrefabInstance: {fileID: 0}
  m_PrefabAsset: {fileID: 0}
  m_GameObject: {fileID: 1592835475}
  m_LocalRotation: {x: -0, y: -0, z: -0, w: 1}
  m_LocalPosition: {x: 271, y: 0, z: -172}
  m_LocalScale: {x: 1, y: 1, z: 1}
  m_Children: []
  m_Father: {fileID: 2004378415}
  m_RootOrder: 3
  m_LocalEulerAnglesHint: {x: 0, y: 0, z: 0}
--- !u!114 &1603373068 stripped
MonoBehaviour:
  m_CorrespondingSourceObject: {fileID: 7645413969252805369, guid: 9787b786c62224442ac81f9c9157a023,
    type: 3}
  m_PrefabInstance: {fileID: 7645413967968264949}
  m_PrefabAsset: {fileID: 0}
  m_GameObject: {fileID: 0}
  m_Enabled: 1
  m_EditorHideFlags: 0
  m_Script: {fileID: 11500000, guid: 0a9ee35acade9f74ab9636d9a7cf7714, type: 3}
  m_Name: 
  m_EditorClassIdentifier: 
--- !u!114 &1603373069 stripped
MonoBehaviour:
  m_CorrespondingSourceObject: {fileID: 7645413969252805368, guid: 9787b786c62224442ac81f9c9157a023,
    type: 3}
  m_PrefabInstance: {fileID: 7645413967968264949}
  m_PrefabAsset: {fileID: 0}
  m_GameObject: {fileID: 0}
  m_Enabled: 1
  m_EditorHideFlags: 0
  m_Script: {fileID: 11500000, guid: 80710b56f74ba1a49942c00c039e41fa, type: 3}
  m_Name: 
  m_EditorClassIdentifier: 
--- !u!1 &1640539138
GameObject:
  m_ObjectHideFlags: 0
  m_CorrespondingSourceObject: {fileID: 0}
  m_PrefabInstance: {fileID: 0}
  m_PrefabAsset: {fileID: 0}
  serializedVersion: 6
  m_Component:
  - component: {fileID: 1640539143}
  - component: {fileID: 1640539142}
  - component: {fileID: 1640539141}
  - component: {fileID: 1640539140}
  - component: {fileID: 1640539139}
  m_Layer: 12
  m_Name: Obstacle (5)
  m_TagString: Untagged
  m_Icon: {fileID: 0}
  m_NavMeshLayer: 0
  m_StaticEditorFlags: 0
  m_IsActive: 1
--- !u!114 &1640539139
MonoBehaviour:
  m_ObjectHideFlags: 0
  m_CorrespondingSourceObject: {fileID: 0}
  m_PrefabInstance: {fileID: 0}
  m_PrefabAsset: {fileID: 0}
  m_GameObject: {fileID: 1640539138}
  m_Enabled: 1
  m_EditorHideFlags: 0
  m_Script: {fileID: 11500000, guid: 44e50215b9f9162428c5355c36d32dc9, type: 3}
  m_Name: 
  m_EditorClassIdentifier: 
  radius: 8.66
--- !u!135 &1640539140
SphereCollider:
  m_ObjectHideFlags: 0
  m_CorrespondingSourceObject: {fileID: 0}
  m_PrefabInstance: {fileID: 0}
  m_PrefabAsset: {fileID: 0}
  m_GameObject: {fileID: 1640539138}
  m_Material: {fileID: 0}
  m_IsTrigger: 0
  m_Enabled: 1
  serializedVersion: 2
  m_Radius: 1.7
  m_Center: {x: 0, y: 0, z: 0}
--- !u!23 &1640539141
MeshRenderer:
  m_ObjectHideFlags: 0
  m_CorrespondingSourceObject: {fileID: 0}
  m_PrefabInstance: {fileID: 0}
  m_PrefabAsset: {fileID: 0}
  m_GameObject: {fileID: 1640539138}
  m_Enabled: 1
  m_CastShadows: 1
  m_ReceiveShadows: 1
  m_DynamicOccludee: 1
  m_MotionVectors: 1
  m_LightProbeUsage: 1
  m_ReflectionProbeUsage: 1
  m_RenderingLayerMask: 1
  m_RendererPriority: 0
  m_Materials:
  - {fileID: 2100000, guid: e727eccce0f2b1c408f8717db1dd174c, type: 2}
  m_StaticBatchInfo:
    firstSubMesh: 0
    subMeshCount: 0
  m_StaticBatchRoot: {fileID: 0}
  m_ProbeAnchor: {fileID: 0}
  m_LightProbeVolumeOverride: {fileID: 0}
  m_ScaleInLightmap: 1
  m_PreserveUVs: 0
  m_IgnoreNormalsForChartDetection: 0
  m_ImportantGI: 0
  m_StitchLightmapSeams: 0
  m_SelectedEditorRenderState: 3
  m_MinimumChartSize: 4
  m_AutoUVMaxDistance: 0.5
  m_AutoUVMaxAngle: 89
  m_LightmapParameters: {fileID: 0}
  m_SortingLayerID: 0
  m_SortingLayer: 0
  m_SortingOrder: 0
--- !u!33 &1640539142
MeshFilter:
  m_ObjectHideFlags: 0
  m_CorrespondingSourceObject: {fileID: 0}
  m_PrefabInstance: {fileID: 0}
  m_PrefabAsset: {fileID: 0}
  m_GameObject: {fileID: 1640539138}
  m_Mesh: {fileID: 10207, guid: 0000000000000000e000000000000000, type: 0}
--- !u!4 &1640539143
Transform:
  m_ObjectHideFlags: 0
  m_CorrespondingSourceObject: {fileID: 0}
  m_PrefabInstance: {fileID: 0}
  m_PrefabAsset: {fileID: 0}
  m_GameObject: {fileID: 1640539138}
  m_LocalRotation: {x: 0, y: 0, z: 0, w: 1}
  m_LocalPosition: {x: -427, y: 1.4, z: -180.5}
  m_LocalScale: {x: 15, y: 15, z: 15}
  m_Children: []
  m_Father: {fileID: 0}
  m_RootOrder: 27
  m_LocalEulerAnglesHint: {x: 0, y: 0, z: 0}
--- !u!1 &1642164023
GameObject:
  m_ObjectHideFlags: 0
  m_CorrespondingSourceObject: {fileID: 0}
  m_PrefabInstance: {fileID: 0}
  m_PrefabAsset: {fileID: 0}
  serializedVersion: 6
  m_Component:
  - component: {fileID: 1642164028}
  - component: {fileID: 1642164027}
  - component: {fileID: 1642164026}
  - component: {fileID: 1642164025}
  - component: {fileID: 1642164024}
  m_Layer: 12
  m_Name: Obstacle (2)
  m_TagString: Untagged
  m_Icon: {fileID: 0}
  m_NavMeshLayer: 0
  m_StaticEditorFlags: 0
  m_IsActive: 1
--- !u!114 &1642164024
MonoBehaviour:
  m_ObjectHideFlags: 0
  m_CorrespondingSourceObject: {fileID: 0}
  m_PrefabInstance: {fileID: 0}
  m_PrefabAsset: {fileID: 0}
  m_GameObject: {fileID: 1642164023}
  m_Enabled: 1
  m_EditorHideFlags: 0
  m_Script: {fileID: 11500000, guid: 44e50215b9f9162428c5355c36d32dc9, type: 3}
  m_Name: 
  m_EditorClassIdentifier: 
  radius: 8.66
--- !u!135 &1642164025
SphereCollider:
  m_ObjectHideFlags: 0
  m_CorrespondingSourceObject: {fileID: 0}
  m_PrefabInstance: {fileID: 0}
  m_PrefabAsset: {fileID: 0}
  m_GameObject: {fileID: 1642164023}
  m_Material: {fileID: 0}
  m_IsTrigger: 0
  m_Enabled: 1
  serializedVersion: 2
  m_Radius: 1.7
  m_Center: {x: 0, y: 0, z: 0}
--- !u!23 &1642164026
MeshRenderer:
  m_ObjectHideFlags: 0
  m_CorrespondingSourceObject: {fileID: 0}
  m_PrefabInstance: {fileID: 0}
  m_PrefabAsset: {fileID: 0}
  m_GameObject: {fileID: 1642164023}
  m_Enabled: 1
  m_CastShadows: 1
  m_ReceiveShadows: 1
  m_DynamicOccludee: 1
  m_MotionVectors: 1
  m_LightProbeUsage: 1
  m_ReflectionProbeUsage: 1
  m_RenderingLayerMask: 1
  m_RendererPriority: 0
  m_Materials:
  - {fileID: 2100000, guid: e727eccce0f2b1c408f8717db1dd174c, type: 2}
  m_StaticBatchInfo:
    firstSubMesh: 0
    subMeshCount: 0
  m_StaticBatchRoot: {fileID: 0}
  m_ProbeAnchor: {fileID: 0}
  m_LightProbeVolumeOverride: {fileID: 0}
  m_ScaleInLightmap: 1
  m_PreserveUVs: 0
  m_IgnoreNormalsForChartDetection: 0
  m_ImportantGI: 0
  m_StitchLightmapSeams: 0
  m_SelectedEditorRenderState: 3
  m_MinimumChartSize: 4
  m_AutoUVMaxDistance: 0.5
  m_AutoUVMaxAngle: 89
  m_LightmapParameters: {fileID: 0}
  m_SortingLayerID: 0
  m_SortingLayer: 0
  m_SortingOrder: 0
--- !u!33 &1642164027
MeshFilter:
  m_ObjectHideFlags: 0
  m_CorrespondingSourceObject: {fileID: 0}
  m_PrefabInstance: {fileID: 0}
  m_PrefabAsset: {fileID: 0}
  m_GameObject: {fileID: 1642164023}
  m_Mesh: {fileID: 10207, guid: 0000000000000000e000000000000000, type: 0}
--- !u!4 &1642164028
Transform:
  m_ObjectHideFlags: 0
  m_CorrespondingSourceObject: {fileID: 0}
  m_PrefabInstance: {fileID: 0}
  m_PrefabAsset: {fileID: 0}
  m_GameObject: {fileID: 1642164023}
  m_LocalRotation: {x: 0, y: 0, z: 0, w: 1}
  m_LocalPosition: {x: -383.7, y: 1.4, z: 38.3}
  m_LocalScale: {x: 15, y: 15, z: 15}
  m_Children: []
  m_Father: {fileID: 0}
  m_RootOrder: 24
  m_LocalEulerAnglesHint: {x: 0, y: 0, z: 0}
--- !u!1 &1875066113
GameObject:
  m_ObjectHideFlags: 0
  m_CorrespondingSourceObject: {fileID: 0}
  m_PrefabInstance: {fileID: 0}
  m_PrefabAsset: {fileID: 0}
  serializedVersion: 6
  m_Component:
  - component: {fileID: 1875066114}
  m_Layer: 0
  m_Name: Left
  m_TagString: Untagged
  m_Icon: {fileID: 0}
  m_NavMeshLayer: 0
  m_StaticEditorFlags: 0
  m_IsActive: 1
--- !u!4 &1875066114
Transform:
  m_ObjectHideFlags: 0
  m_CorrespondingSourceObject: {fileID: 0}
  m_PrefabInstance: {fileID: 0}
  m_PrefabAsset: {fileID: 0}
  m_GameObject: {fileID: 1875066113}
  m_LocalRotation: {x: 0.34497052, y: -0, z: -0, w: 0.93861353}
  m_LocalPosition: {x: -47.63025, y: 239.22806, z: -166.01999}
  m_LocalScale: {x: 1, y: 1, z: 1}
  m_Children: []
  m_Father: {fileID: 1961609350}
  m_RootOrder: 0
  m_LocalEulerAnglesHint: {x: 40.36, y: 0, z: 0}
--- !u!1 &1877487800
GameObject:
  m_ObjectHideFlags: 0
  m_CorrespondingSourceObject: {fileID: 0}
  m_PrefabInstance: {fileID: 0}
  m_PrefabAsset: {fileID: 0}
  serializedVersion: 6
  m_Component:
  - component: {fileID: 1877487801}
  m_Layer: 0
  m_Name: Right
  m_TagString: Untagged
  m_Icon: {fileID: 0}
  m_NavMeshLayer: 0
  m_StaticEditorFlags: 0
  m_IsActive: 1
--- !u!4 &1877487801
Transform:
  m_ObjectHideFlags: 0
  m_CorrespondingSourceObject: {fileID: 0}
  m_PrefabInstance: {fileID: 0}
  m_PrefabAsset: {fileID: 0}
  m_GameObject: {fileID: 1877487800}
  m_LocalRotation: {x: -0, y: -0, z: -0, w: 1}
  m_LocalPosition: {x: 99.769745, y: 239.22806, z: -166.01999}
  m_LocalScale: {x: 1, y: 1, z: 1}
  m_Children: []
  m_Father: {fileID: 1961609350}
  m_RootOrder: 1
  m_LocalEulerAnglesHint: {x: 0, y: 0, z: 0}
--- !u!1 &1880090771
GameObject:
  m_ObjectHideFlags: 0
  m_CorrespondingSourceObject: {fileID: 0}
  m_PrefabInstance: {fileID: 0}
  m_PrefabAsset: {fileID: 0}
  serializedVersion: 6
  m_Component:
  - component: {fileID: 1880090773}
  - component: {fileID: 1880090772}
  m_Layer: 0
  m_Name: LevelSettings
  m_TagString: Untagged
  m_Icon: {fileID: 0}
  m_NavMeshLayer: 0
  m_StaticEditorFlags: 0
  m_IsActive: 1
--- !u!114 &1880090772
MonoBehaviour:
  m_ObjectHideFlags: 0
  m_CorrespondingSourceObject: {fileID: 0}
  m_PrefabInstance: {fileID: 0}
  m_PrefabAsset: {fileID: 0}
  m_GameObject: {fileID: 1880090771}
  m_Enabled: 1
  m_EditorHideFlags: 0
  m_Script: {fileID: 11500000, guid: c1279cd38337af44da487be1a8eab9e8, type: 3}
  m_Name: 
  m_EditorClassIdentifier: 
  spawnPoints:
  - {fileID: 829685786}
  - {fileID: 1225839544}
  enemyTypes:
  - {fileID: 1577796327}
  - {fileID: 1242936526}
  currentEnemyInstances: []
  commander: {fileID: 2004378414}
  megamind: {fileID: 131650887}
  timeForWave1: 0.2
  timeForWave2: 0
  timeForWave3: 0
--- !u!4 &1880090773
Transform:
  m_ObjectHideFlags: 0
  m_CorrespondingSourceObject: {fileID: 0}
  m_PrefabInstance: {fileID: 0}
  m_PrefabAsset: {fileID: 0}
  m_GameObject: {fileID: 1880090771}
  m_LocalRotation: {x: 0, y: 0, z: 0, w: 1}
  m_LocalPosition: {x: 18.153456, y: -22.999313, z: -129.88297}
  m_LocalScale: {x: 1, y: 1, z: 1}
  m_Children: []
  m_Father: {fileID: 0}
  m_RootOrder: 15
  m_LocalEulerAnglesHint: {x: 0, y: 0, z: 0}
--- !u!1 &1961609348
GameObject:
  m_ObjectHideFlags: 0
  m_CorrespondingSourceObject: {fileID: 0}
  m_PrefabInstance: {fileID: 0}
  m_PrefabAsset: {fileID: 0}
  serializedVersion: 6
  m_Component:
  - component: {fileID: 1961609350}
  - component: {fileID: 1961609349}
  m_Layer: 0
  m_Name: Camera boundaries
  m_TagString: Untagged
  m_Icon: {fileID: 0}
  m_NavMeshLayer: 0
  m_StaticEditorFlags: 0
  m_IsActive: 1
--- !u!114 &1961609349
MonoBehaviour:
  m_ObjectHideFlags: 0
  m_CorrespondingSourceObject: {fileID: 0}
  m_PrefabInstance: {fileID: 0}
  m_PrefabAsset: {fileID: 0}
  m_GameObject: {fileID: 1961609348}
  m_Enabled: 1
  m_EditorHideFlags: 0
  m_Script: {fileID: 11500000, guid: 57b829138400b5345b178ff6aac54173, type: 3}
  m_Name: 
  m_EditorClassIdentifier: 
  left: {fileID: 1875066114}
  right: {fileID: 1877487801}
  top: {fileID: 1067198072}
  bottom: {fileID: 1261793785}
--- !u!4 &1961609350
Transform:
  m_ObjectHideFlags: 0
  m_CorrespondingSourceObject: {fileID: 0}
  m_PrefabInstance: {fileID: 0}
  m_PrefabAsset: {fileID: 0}
  m_GameObject: {fileID: 1961609348}
  m_LocalRotation: {x: -0, y: -0, z: -0, w: 1}
  m_LocalPosition: {x: 31.130249, y: -76.62805, z: -83.58002}
  m_LocalScale: {x: 1, y: 1, z: 1}
  m_Children:
  - {fileID: 1875066114}
  - {fileID: 1877487801}
  - {fileID: 1067198072}
  - {fileID: 1261793785}
  m_Father: {fileID: 0}
  m_RootOrder: 1
  m_LocalEulerAnglesHint: {x: 0, y: 0, z: 0}
--- !u!1 &2004378413
GameObject:
  m_ObjectHideFlags: 0
  m_CorrespondingSourceObject: {fileID: 0}
  m_PrefabInstance: {fileID: 0}
  m_PrefabAsset: {fileID: 0}
  serializedVersion: 6
  m_Component:
  - component: {fileID: 2004378415}
  - component: {fileID: 2004378414}
  m_Layer: 0
  m_Name: EnemyCommander
  m_TagString: Untagged
  m_Icon: {fileID: 0}
  m_NavMeshLayer: 0
  m_StaticEditorFlags: 0
  m_IsActive: 1
--- !u!114 &2004378414
MonoBehaviour:
  m_ObjectHideFlags: 0
  m_CorrespondingSourceObject: {fileID: 0}
  m_PrefabInstance: {fileID: 0}
  m_PrefabAsset: {fileID: 0}
  m_GameObject: {fileID: 2004378413}
  m_Enabled: 1
  m_EditorHideFlags: 0
  m_Script: {fileID: 11500000, guid: f928731cf6b335f4c8aeda2956b42747, type: 3}
  m_Name: 
  m_EditorClassIdentifier: 
  distanceToTarget: 5
  path:
  - {fileID: 1370253921}
  - {fileID: 419326919}
  - {fileID: 1096595255}
  - {fileID: 1592835475}
  - {fileID: 53368603}
  - {fileID: 202231064}
  - {fileID: 752261531}
  - {fileID: 228692975}
  - {fileID: 123101665}
  vehicles:
  - {fileID: 1577796333}
  - {fileID: 1047021697}
--- !u!4 &2004378415
Transform:
  m_ObjectHideFlags: 0
  m_CorrespondingSourceObject: {fileID: 0}
  m_PrefabInstance: {fileID: 0}
  m_PrefabAsset: {fileID: 0}
  m_GameObject: {fileID: 2004378413}
  m_LocalRotation: {x: 0, y: 0, z: 0, w: 1}
  m_LocalPosition: {x: 58.5, y: 0, z: -50.7}
  m_LocalScale: {x: 1, y: 1, z: 1}
  m_Children:
  - {fileID: 1370253923}
  - {fileID: 419326921}
  - {fileID: 1096595257}
  - {fileID: 1592835477}
  - {fileID: 53368605}
  - {fileID: 202231066}
  - {fileID: 752261532}
  - {fileID: 228692976}
  - {fileID: 123101667}
  m_Father: {fileID: 0}
  m_RootOrder: 11
  m_LocalEulerAnglesHint: {x: 0, y: 0, z: 0}
--- !u!1001 &2029095361
PrefabInstance:
  m_ObjectHideFlags: 0
  serializedVersion: 2
  m_Modification:
    m_TransformParent: {fileID: 0}
    m_Modifications:
    - target: {fileID: 100000, guid: 3b31246230f8a5e45955652cb8e244fa, type: 3}
      propertyPath: m_Name
      value: Capital_Ship_v2
      objectReference: {fileID: 0}
    - target: {fileID: 100000, guid: 3b31246230f8a5e45955652cb8e244fa, type: 3}
      propertyPath: m_IsActive
      value: 0
      objectReference: {fileID: 0}
    - target: {fileID: 400000, guid: 3b31246230f8a5e45955652cb8e244fa, type: 3}
      propertyPath: m_LocalPosition.x
      value: 6.99
      objectReference: {fileID: 0}
    - target: {fileID: 400000, guid: 3b31246230f8a5e45955652cb8e244fa, type: 3}
      propertyPath: m_LocalPosition.y
      value: -5.97
      objectReference: {fileID: 0}
    - target: {fileID: 400000, guid: 3b31246230f8a5e45955652cb8e244fa, type: 3}
      propertyPath: m_LocalPosition.z
      value: 66.12568
      objectReference: {fileID: 0}
    - target: {fileID: 400000, guid: 3b31246230f8a5e45955652cb8e244fa, type: 3}
      propertyPath: m_LocalRotation.x
      value: -0.03404953
      objectReference: {fileID: 0}
    - target: {fileID: 400000, guid: 3b31246230f8a5e45955652cb8e244fa, type: 3}
      propertyPath: m_LocalRotation.y
      value: -0.70628655
      objectReference: {fileID: 0}
    - target: {fileID: 400000, guid: 3b31246230f8a5e45955652cb8e244fa, type: 3}
      propertyPath: m_LocalRotation.z
      value: -0.70628655
      objectReference: {fileID: 0}
    - target: {fileID: 400000, guid: 3b31246230f8a5e45955652cb8e244fa, type: 3}
      propertyPath: m_LocalRotation.w
      value: 0.03404953
      objectReference: {fileID: 0}
    - target: {fileID: 400000, guid: 3b31246230f8a5e45955652cb8e244fa, type: 3}
      propertyPath: m_RootOrder
      value: 29
      objectReference: {fileID: 0}
    - target: {fileID: 400000, guid: 3b31246230f8a5e45955652cb8e244fa, type: 3}
      propertyPath: m_LocalEulerAnglesHint.x
      value: -90.00001
      objectReference: {fileID: 0}
    - target: {fileID: 400000, guid: 3b31246230f8a5e45955652cb8e244fa, type: 3}
      propertyPath: m_LocalEulerAnglesHint.y
      value: 0
      objectReference: {fileID: 0}
    - target: {fileID: 400000, guid: 3b31246230f8a5e45955652cb8e244fa, type: 3}
      propertyPath: m_LocalEulerAnglesHint.z
      value: -174.48001
      objectReference: {fileID: 0}
    - target: {fileID: 400000, guid: 3b31246230f8a5e45955652cb8e244fa, type: 3}
      propertyPath: m_LocalScale.x
      value: 100
      objectReference: {fileID: 0}
    - target: {fileID: 400000, guid: 3b31246230f8a5e45955652cb8e244fa, type: 3}
      propertyPath: m_LocalScale.y
      value: 100
      objectReference: {fileID: 0}
    - target: {fileID: 400000, guid: 3b31246230f8a5e45955652cb8e244fa, type: 3}
      propertyPath: m_LocalScale.z
      value: 100
      objectReference: {fileID: 0}
    - target: {fileID: 2300000, guid: 3b31246230f8a5e45955652cb8e244fa, type: 3}
      propertyPath: m_Materials.Array.data[0]
      value: 
      objectReference: {fileID: 2100000, guid: 6cd2f5922ec64314f9f56a2c6695301b, type: 2}
    m_RemovedComponents: []
  m_SourcePrefab: {fileID: 100100000, guid: 3b31246230f8a5e45955652cb8e244fa, type: 3}
--- !u!1 &2031977542
GameObject:
  m_ObjectHideFlags: 0
  m_CorrespondingSourceObject: {fileID: 0}
  m_PrefabInstance: {fileID: 0}
  m_PrefabAsset: {fileID: 0}
  serializedVersion: 6
  m_Component:
  - component: {fileID: 2031977547}
  - component: {fileID: 2031977546}
  - component: {fileID: 2031977545}
  - component: {fileID: 2031977544}
  - component: {fileID: 2031977543}
  m_Layer: 12
  m_Name: Obstacle (6)
  m_TagString: Untagged
  m_Icon: {fileID: 0}
  m_NavMeshLayer: 0
  m_StaticEditorFlags: 0
  m_IsActive: 1
--- !u!114 &2031977543
MonoBehaviour:
  m_ObjectHideFlags: 0
  m_CorrespondingSourceObject: {fileID: 0}
  m_PrefabInstance: {fileID: 0}
  m_PrefabAsset: {fileID: 0}
  m_GameObject: {fileID: 2031977542}
  m_Enabled: 1
  m_EditorHideFlags: 0
  m_Script: {fileID: 11500000, guid: 44e50215b9f9162428c5355c36d32dc9, type: 3}
  m_Name: 
  m_EditorClassIdentifier: 
  radius: 8.66
--- !u!135 &2031977544
SphereCollider:
  m_ObjectHideFlags: 0
  m_CorrespondingSourceObject: {fileID: 0}
  m_PrefabInstance: {fileID: 0}
  m_PrefabAsset: {fileID: 0}
  m_GameObject: {fileID: 2031977542}
  m_Material: {fileID: 0}
  m_IsTrigger: 0
  m_Enabled: 1
  serializedVersion: 2
  m_Radius: 1.7
  m_Center: {x: 0, y: 0, z: 0}
--- !u!23 &2031977545
MeshRenderer:
  m_ObjectHideFlags: 0
  m_CorrespondingSourceObject: {fileID: 0}
  m_PrefabInstance: {fileID: 0}
  m_PrefabAsset: {fileID: 0}
  m_GameObject: {fileID: 2031977542}
  m_Enabled: 1
  m_CastShadows: 1
  m_ReceiveShadows: 1
  m_DynamicOccludee: 1
  m_MotionVectors: 1
  m_LightProbeUsage: 1
  m_ReflectionProbeUsage: 1
  m_RenderingLayerMask: 1
  m_RendererPriority: 0
  m_Materials:
  - {fileID: 2100000, guid: e727eccce0f2b1c408f8717db1dd174c, type: 2}
  m_StaticBatchInfo:
    firstSubMesh: 0
    subMeshCount: 0
  m_StaticBatchRoot: {fileID: 0}
  m_ProbeAnchor: {fileID: 0}
  m_LightProbeVolumeOverride: {fileID: 0}
  m_ScaleInLightmap: 1
  m_PreserveUVs: 0
  m_IgnoreNormalsForChartDetection: 0
  m_ImportantGI: 0
  m_StitchLightmapSeams: 0
  m_SelectedEditorRenderState: 3
  m_MinimumChartSize: 4
  m_AutoUVMaxDistance: 0.5
  m_AutoUVMaxAngle: 89
  m_LightmapParameters: {fileID: 0}
  m_SortingLayerID: 0
  m_SortingLayer: 0
  m_SortingOrder: 0
--- !u!33 &2031977546
MeshFilter:
  m_ObjectHideFlags: 0
  m_CorrespondingSourceObject: {fileID: 0}
  m_PrefabInstance: {fileID: 0}
  m_PrefabAsset: {fileID: 0}
  m_GameObject: {fileID: 2031977542}
  m_Mesh: {fileID: 10207, guid: 0000000000000000e000000000000000, type: 0}
--- !u!4 &2031977547
Transform:
  m_ObjectHideFlags: 0
  m_CorrespondingSourceObject: {fileID: 0}
  m_PrefabInstance: {fileID: 0}
  m_PrefabAsset: {fileID: 0}
  m_GameObject: {fileID: 2031977542}
  m_LocalRotation: {x: 0, y: 0, z: 0, w: 1}
  m_LocalPosition: {x: -508.80002, y: 1.4, z: -168.7}
  m_LocalScale: {x: 15, y: 15, z: 15}
  m_Children: []
  m_Father: {fileID: 0}
  m_RootOrder: 28
  m_LocalEulerAnglesHint: {x: 0, y: 0, z: 0}
--- !u!1001 &1396356461641180515
PrefabInstance:
  m_ObjectHideFlags: 0
  serializedVersion: 2
  m_Modification:
    m_TransformParent: {fileID: 0}
    m_Modifications:
    - target: {fileID: 1396356460884462448, guid: 8d769d76dd1523342b4320c477b7cd80,
        type: 3}
      propertyPath: m_Name
      value: General manager
      objectReference: {fileID: 0}
    - target: {fileID: 1396356460884462454, guid: 8d769d76dd1523342b4320c477b7cd80,
        type: 3}
      propertyPath: camManager
      value: 
      objectReference: {fileID: 1603373068}
    - target: {fileID: 1396356460884462454, guid: 8d769d76dd1523342b4320c477b7cd80,
        type: 3}
      propertyPath: canvasCollector
      value: 
      objectReference: {fileID: 750098341}
    - target: {fileID: 1396356460884462454, guid: 8d769d76dd1523342b4320c477b7cd80,
        type: 3}
      propertyPath: debugTurret
      value: 
      objectReference: {fileID: 184572352}
    - target: {fileID: 1396356460884462454, guid: 8d769d76dd1523342b4320c477b7cd80,
        type: 3}
      propertyPath: enableTransitions
      value: 0
      objectReference: {fileID: 0}
    - target: {fileID: 1396356460884462454, guid: 8d769d76dd1523342b4320c477b7cd80,
        type: 3}
      propertyPath: currentLevel
      value: 
      objectReference: {fileID: 1880090772}
    - target: {fileID: 1396356460884462454, guid: 8d769d76dd1523342b4320c477b7cd80,
        type: 3}
      propertyPath: checkEndGame
      value: 0
      objectReference: {fileID: 0}
    - target: {fileID: 1396356460884462455, guid: 8d769d76dd1523342b4320c477b7cd80,
        type: 3}
      propertyPath: m_LocalPosition.x
      value: -42.621918
      objectReference: {fileID: 0}
    - target: {fileID: 1396356460884462455, guid: 8d769d76dd1523342b4320c477b7cd80,
        type: 3}
      propertyPath: m_LocalPosition.y
      value: 3.789688
      objectReference: {fileID: 0}
    - target: {fileID: 1396356460884462455, guid: 8d769d76dd1523342b4320c477b7cd80,
        type: 3}
      propertyPath: m_LocalPosition.z
      value: -72.25492
      objectReference: {fileID: 0}
    - target: {fileID: 1396356460884462455, guid: 8d769d76dd1523342b4320c477b7cd80,
        type: 3}
      propertyPath: m_LocalRotation.x
      value: 0
      objectReference: {fileID: 0}
    - target: {fileID: 1396356460884462455, guid: 8d769d76dd1523342b4320c477b7cd80,
        type: 3}
      propertyPath: m_LocalRotation.y
      value: 0
      objectReference: {fileID: 0}
    - target: {fileID: 1396356460884462455, guid: 8d769d76dd1523342b4320c477b7cd80,
        type: 3}
      propertyPath: m_LocalRotation.z
      value: 0
      objectReference: {fileID: 0}
    - target: {fileID: 1396356460884462455, guid: 8d769d76dd1523342b4320c477b7cd80,
        type: 3}
      propertyPath: m_LocalRotation.w
      value: 1
      objectReference: {fileID: 0}
    - target: {fileID: 1396356460884462455, guid: 8d769d76dd1523342b4320c477b7cd80,
        type: 3}
      propertyPath: m_RootOrder
      value: 4
      objectReference: {fileID: 0}
    - target: {fileID: 1396356460884462455, guid: 8d769d76dd1523342b4320c477b7cd80,
        type: 3}
      propertyPath: m_LocalEulerAnglesHint.x
      value: 0
      objectReference: {fileID: 0}
    - target: {fileID: 1396356460884462455, guid: 8d769d76dd1523342b4320c477b7cd80,
        type: 3}
      propertyPath: m_LocalEulerAnglesHint.y
      value: 0
      objectReference: {fileID: 0}
    - target: {fileID: 1396356460884462455, guid: 8d769d76dd1523342b4320c477b7cd80,
        type: 3}
      propertyPath: m_LocalEulerAnglesHint.z
      value: 0
      objectReference: {fileID: 0}
    m_RemovedComponents: []
  m_SourcePrefab: {fileID: 100100000, guid: 8d769d76dd1523342b4320c477b7cd80, type: 3}
--- !u!1001 &2788399073980036777
PrefabInstance:
  m_ObjectHideFlags: 0
  serializedVersion: 2
  m_Modification:
    m_TransformParent: {fileID: 0}
    m_Modifications:
    - target: {fileID: 7528771037149672966, guid: 25c0023b9c55d8644b839e9552aeb2e6,
        type: 3}
      propertyPath: m_Name
      value: Turret
      objectReference: {fileID: 0}
    - target: {fileID: 7528771037149672966, guid: 25c0023b9c55d8644b839e9552aeb2e6,
        type: 3}
      propertyPath: m_IsActive
      value: 0
      objectReference: {fileID: 0}
    - target: {fileID: 8297193495981151772, guid: 25c0023b9c55d8644b839e9552aeb2e6,
        type: 3}
      propertyPath: m_LocalPosition.x
      value: -70.3
      objectReference: {fileID: 0}
    - target: {fileID: 8297193495981151772, guid: 25c0023b9c55d8644b839e9552aeb2e6,
        type: 3}
      propertyPath: m_LocalPosition.y
      value: 2.91
      objectReference: {fileID: 0}
    - target: {fileID: 8297193495981151772, guid: 25c0023b9c55d8644b839e9552aeb2e6,
        type: 3}
      propertyPath: m_LocalPosition.z
      value: -112.8
      objectReference: {fileID: 0}
    - target: {fileID: 8297193495981151772, guid: 25c0023b9c55d8644b839e9552aeb2e6,
        type: 3}
      propertyPath: m_LocalRotation.x
      value: -0
      objectReference: {fileID: 0}
    - target: {fileID: 8297193495981151772, guid: 25c0023b9c55d8644b839e9552aeb2e6,
        type: 3}
      propertyPath: m_LocalRotation.y
      value: -0.7735893
      objectReference: {fileID: 0}
    - target: {fileID: 8297193495981151772, guid: 25c0023b9c55d8644b839e9552aeb2e6,
        type: 3}
      propertyPath: m_LocalRotation.z
      value: -0
      objectReference: {fileID: 0}
    - target: {fileID: 8297193495981151772, guid: 25c0023b9c55d8644b839e9552aeb2e6,
        type: 3}
      propertyPath: m_LocalRotation.w
      value: 0.6336874
      objectReference: {fileID: 0}
    - target: {fileID: 8297193495981151772, guid: 25c0023b9c55d8644b839e9552aeb2e6,
        type: 3}
      propertyPath: m_RootOrder
      value: 8
      objectReference: {fileID: 0}
    - target: {fileID: 8297193495981151772, guid: 25c0023b9c55d8644b839e9552aeb2e6,
        type: 3}
      propertyPath: m_LocalEulerAnglesHint.x
      value: 0
      objectReference: {fileID: 0}
    - target: {fileID: 8297193495981151772, guid: 25c0023b9c55d8644b839e9552aeb2e6,
        type: 3}
      propertyPath: m_LocalEulerAnglesHint.y
      value: -101.355
      objectReference: {fileID: 0}
    - target: {fileID: 8297193495981151772, guid: 25c0023b9c55d8644b839e9552aeb2e6,
        type: 3}
      propertyPath: m_LocalEulerAnglesHint.z
      value: 0
      objectReference: {fileID: 0}
    - target: {fileID: 2401030326627968135, guid: 25c0023b9c55d8644b839e9552aeb2e6,
        type: 3}
      propertyPath: m_TagString
      value: ManualTurret
      objectReference: {fileID: 0}
    - target: {fileID: 97456234815501612, guid: 25c0023b9c55d8644b839e9552aeb2e6,
        type: 3}
      propertyPath: m_IsTrigger
      value: 1
      objectReference: {fileID: 0}
    - target: {fileID: 7586623903759283242, guid: 25c0023b9c55d8644b839e9552aeb2e6,
        type: 3}
      propertyPath: m_IsActive
      value: 0
      objectReference: {fileID: 0}
    m_RemovedComponents: []
  m_SourcePrefab: {fileID: 100100000, guid: 25c0023b9c55d8644b839e9552aeb2e6, type: 3}
--- !u!1001 &7645413967968264949
PrefabInstance:
  m_ObjectHideFlags: 0
  serializedVersion: 2
  m_Modification:
    m_TransformParent: {fileID: 0}
    m_Modifications:
    - target: {fileID: 7645413969252805372, guid: 9787b786c62224442ac81f9c9157a023,
        type: 3}
      propertyPath: m_Name
      value: CameraManager
      objectReference: {fileID: 0}
    - target: {fileID: 7645413969252805369, guid: 9787b786c62224442ac81f9c9157a023,
        type: 3}
      propertyPath: gm
      value: 
      objectReference: {fileID: 891727381}
    - target: {fileID: 7645413969252805369, guid: 9787b786c62224442ac81f9c9157a023,
        type: 3}
      propertyPath: canvasCollector
      value: 
      objectReference: {fileID: 750098341}
    - target: {fileID: 7645413969252805369, guid: 9787b786c62224442ac81f9c9157a023,
        type: 3}
      propertyPath: camBoundaries
      value: 
      objectReference: {fileID: 1961609349}
    - target: {fileID: 7645413969252805368, guid: 9787b786c62224442ac81f9c9157a023,
        type: 3}
      propertyPath: gm
      value: 
      objectReference: {fileID: 891727381}
    - target: {fileID: 7645413969252805368, guid: 9787b786c62224442ac81f9c9157a023,
        type: 3}
      propertyPath: colorAvoidSetting.a
      value: 1
      objectReference: {fileID: 0}
    - target: {fileID: 7645413969252805368, guid: 9787b786c62224442ac81f9c9157a023,
        type: 3}
      propertyPath: basicTurretCost
      value: 10
      objectReference: {fileID: 0}
    - target: {fileID: 7645413969252805375, guid: 9787b786c62224442ac81f9c9157a023,
        type: 3}
      propertyPath: m_LocalPosition.x
      value: 27.8
      objectReference: {fileID: 0}
    - target: {fileID: 7645413969252805375, guid: 9787b786c62224442ac81f9c9157a023,
        type: 3}
      propertyPath: m_LocalPosition.y
      value: 162.6
      objectReference: {fileID: 0}
    - target: {fileID: 7645413969252805375, guid: 9787b786c62224442ac81f9c9157a023,
        type: 3}
      propertyPath: m_LocalPosition.z
      value: -306.2
      objectReference: {fileID: 0}
    - target: {fileID: 7645413969252805375, guid: 9787b786c62224442ac81f9c9157a023,
        type: 3}
      propertyPath: m_LocalRotation.x
      value: 0.34497052
      objectReference: {fileID: 0}
    - target: {fileID: 7645413969252805375, guid: 9787b786c62224442ac81f9c9157a023,
        type: 3}
      propertyPath: m_LocalRotation.y
      value: 0
      objectReference: {fileID: 0}
    - target: {fileID: 7645413969252805375, guid: 9787b786c62224442ac81f9c9157a023,
        type: 3}
      propertyPath: m_LocalRotation.z
      value: 0
      objectReference: {fileID: 0}
    - target: {fileID: 7645413969252805375, guid: 9787b786c62224442ac81f9c9157a023,
        type: 3}
      propertyPath: m_LocalRotation.w
      value: 0.93861353
      objectReference: {fileID: 0}
    - target: {fileID: 7645413969252805375, guid: 9787b786c62224442ac81f9c9157a023,
        type: 3}
      propertyPath: m_RootOrder
      value: 0
      objectReference: {fileID: 0}
    - target: {fileID: 7645413969252805375, guid: 9787b786c62224442ac81f9c9157a023,
        type: 3}
      propertyPath: m_LocalEulerAnglesHint.x
      value: 40.36
      objectReference: {fileID: 0}
    - target: {fileID: 7645413969252805375, guid: 9787b786c62224442ac81f9c9157a023,
        type: 3}
      propertyPath: m_LocalEulerAnglesHint.y
      value: 0
      objectReference: {fileID: 0}
    - target: {fileID: 7645413969252805375, guid: 9787b786c62224442ac81f9c9157a023,
        type: 3}
      propertyPath: m_LocalEulerAnglesHint.z
      value: 0
      objectReference: {fileID: 0}
    m_RemovedComponents: []
  m_SourcePrefab: {fileID: 100100000, guid: 9787b786c62224442ac81f9c9157a023, type: 3}
--- !u!1001 &8784616218665767870
PrefabInstance:
  m_ObjectHideFlags: 0
  serializedVersion: 2
  m_Modification:
    m_TransformParent: {fileID: 0}
    m_Modifications:
    - target: {fileID: 8784616218318390302, guid: bf93b2999c8f13b4fb66712718827822,
        type: 3}
      propertyPath: m_Name
      value: Canvas General View
      objectReference: {fileID: 0}
    - target: {fileID: 8784616217819221787, guid: bf93b2999c8f13b4fb66712718827822,
        type: 3}
      propertyPath: m_OnClick.m_PersistentCalls.m_Calls.Array.data[0].m_Target
      value: 
      objectReference: {fileID: 1603373069}
    - target: {fileID: 7585190704219320739, guid: bf93b2999c8f13b4fb66712718827822,
        type: 3}
      propertyPath: m_OnClick.m_PersistentCalls.m_Calls.Array.data[0].m_Target
      value: 
      objectReference: {fileID: 1603373069}
    - target: {fileID: 8784616218318390298, guid: bf93b2999c8f13b4fb66712718827822,
        type: 3}
      propertyPath: m_LocalPosition.x
      value: 0
      objectReference: {fileID: 0}
    - target: {fileID: 8784616218318390298, guid: bf93b2999c8f13b4fb66712718827822,
        type: 3}
      propertyPath: m_LocalPosition.y
      value: 0
      objectReference: {fileID: 0}
    - target: {fileID: 8784616218318390298, guid: bf93b2999c8f13b4fb66712718827822,
        type: 3}
      propertyPath: m_LocalPosition.z
      value: 0
      objectReference: {fileID: 0}
    - target: {fileID: 8784616218318390298, guid: bf93b2999c8f13b4fb66712718827822,
        type: 3}
      propertyPath: m_LocalRotation.x
      value: 0
      objectReference: {fileID: 0}
    - target: {fileID: 8784616218318390298, guid: bf93b2999c8f13b4fb66712718827822,
        type: 3}
      propertyPath: m_LocalRotation.y
      value: 0
      objectReference: {fileID: 0}
    - target: {fileID: 8784616218318390298, guid: bf93b2999c8f13b4fb66712718827822,
        type: 3}
      propertyPath: m_LocalRotation.z
      value: 0
      objectReference: {fileID: 0}
    - target: {fileID: 8784616218318390298, guid: bf93b2999c8f13b4fb66712718827822,
        type: 3}
      propertyPath: m_LocalRotation.w
      value: 1
      objectReference: {fileID: 0}
    - target: {fileID: 8784616218318390298, guid: bf93b2999c8f13b4fb66712718827822,
        type: 3}
      propertyPath: m_RootOrder
      value: 5
      objectReference: {fileID: 0}
    - target: {fileID: 8784616218318390298, guid: bf93b2999c8f13b4fb66712718827822,
        type: 3}
      propertyPath: m_LocalEulerAnglesHint.x
      value: 0
      objectReference: {fileID: 0}
    - target: {fileID: 8784616218318390298, guid: bf93b2999c8f13b4fb66712718827822,
        type: 3}
      propertyPath: m_LocalEulerAnglesHint.y
      value: 0
      objectReference: {fileID: 0}
    - target: {fileID: 8784616218318390298, guid: bf93b2999c8f13b4fb66712718827822,
        type: 3}
      propertyPath: m_LocalEulerAnglesHint.z
      value: 0
      objectReference: {fileID: 0}
    - target: {fileID: 8784616218318390298, guid: bf93b2999c8f13b4fb66712718827822,
        type: 3}
      propertyPath: m_AnchoredPosition.x
      value: 0
      objectReference: {fileID: 0}
    - target: {fileID: 8784616218318390298, guid: bf93b2999c8f13b4fb66712718827822,
        type: 3}
      propertyPath: m_AnchoredPosition.y
      value: 0
      objectReference: {fileID: 0}
    - target: {fileID: 8784616218318390298, guid: bf93b2999c8f13b4fb66712718827822,
        type: 3}
      propertyPath: m_SizeDelta.x
      value: 0
      objectReference: {fileID: 0}
    - target: {fileID: 8784616218318390298, guid: bf93b2999c8f13b4fb66712718827822,
        type: 3}
      propertyPath: m_SizeDelta.y
      value: 0
      objectReference: {fileID: 0}
    - target: {fileID: 8784616218318390298, guid: bf93b2999c8f13b4fb66712718827822,
        type: 3}
      propertyPath: m_AnchorMin.x
      value: 0
      objectReference: {fileID: 0}
    - target: {fileID: 8784616218318390298, guid: bf93b2999c8f13b4fb66712718827822,
        type: 3}
      propertyPath: m_AnchorMin.y
      value: 0
      objectReference: {fileID: 0}
    - target: {fileID: 8784616218318390298, guid: bf93b2999c8f13b4fb66712718827822,
        type: 3}
      propertyPath: m_AnchorMax.x
      value: 0
      objectReference: {fileID: 0}
    - target: {fileID: 8784616218318390298, guid: bf93b2999c8f13b4fb66712718827822,
        type: 3}
      propertyPath: m_AnchorMax.y
      value: 0
      objectReference: {fileID: 0}
    - target: {fileID: 8784616218318390298, guid: bf93b2999c8f13b4fb66712718827822,
        type: 3}
      propertyPath: m_Pivot.x
      value: 0
      objectReference: {fileID: 0}
    - target: {fileID: 8784616218318390298, guid: bf93b2999c8f13b4fb66712718827822,
        type: 3}
      propertyPath: m_Pivot.y
      value: 0
      objectReference: {fileID: 0}
    - target: {fileID: 8784616217123671448, guid: bf93b2999c8f13b4fb66712718827822,
        type: 3}
      propertyPath: m_OnClick.m_PersistentCalls.m_Calls.Array.data[0].m_Target
      value: 
      objectReference: {fileID: 891727381}
    - target: {fileID: 8784616216883262838, guid: bf93b2999c8f13b4fb66712718827822,
        type: 3}
      propertyPath: m_OnClick.m_PersistentCalls.m_Calls.Array.data[0].m_Target
      value: 
      objectReference: {fileID: 891727382}
    - target: {fileID: 8784616217464800926, guid: bf93b2999c8f13b4fb66712718827822,
        type: 3}
      propertyPath: m_OnClick.m_PersistentCalls.m_Calls.Array.data[0].m_Target
      value: 
      objectReference: {fileID: 891727382}
    m_RemovedComponents: []
  m_SourcePrefab: {fileID: 100100000, guid: bf93b2999c8f13b4fb66712718827822, type: 3}
