%YAML 1.1
%TAG !u! tag:unity3d.com,2011:
--- !u!1 &8784299579232389120
GameObject:
  m_ObjectHideFlags: 0
  m_CorrespondingSourceObject: {fileID: 0}
  m_PrefabInstance: {fileID: 0}
  m_PrefabAsset: {fileID: 0}
  serializedVersion: 6
  m_Component:
  - component: {fileID: 1189159436409617078}
  - component: {fileID: 5035573749536256401}
  - component: {fileID: 5802771673927920827}
  m_Layer: 0
  m_Name: Planet
  m_TagString: Untagged
  m_Icon: {fileID: 0}
  m_NavMeshLayer: 0
  m_StaticEditorFlags: 0
  m_IsActive: 1
--- !u!4 &1189159436409617078
Transform:
  m_ObjectHideFlags: 0
  m_CorrespondingSourceObject: {fileID: 0}
  m_PrefabInstance: {fileID: 0}
  m_PrefabAsset: {fileID: 0}
  m_GameObject: {fileID: 8784299579232389120}
  m_LocalRotation: {x: -0.7069834, y: 0, z: 0, w: 0.7072302}
  m_LocalPosition: {x: 0, y: 0, z: -186}
  m_LocalScale: {x: 10, y: 10, z: 10}
  m_Children:
  - {fileID: 5563626749024349987}
  m_Father: {fileID: 0}
  m_RootOrder: 0
  m_LocalEulerAnglesHint: {x: -89.98, y: 0, z: 0}
--- !u!33 &5035573749536256401
MeshFilter:
  m_ObjectHideFlags: 0
  m_CorrespondingSourceObject: {fileID: 0}
  m_PrefabInstance: {fileID: 0}
  m_PrefabAsset: {fileID: 0}
  m_GameObject: {fileID: 8784299579232389120}
  m_Mesh: {fileID: 4300000, guid: d70657ae8c6820f49a7f32af42420dd5, type: 3}
--- !u!23 &5802771673927920827
MeshRenderer:
  m_ObjectHideFlags: 0
  m_CorrespondingSourceObject: {fileID: 0}
  m_PrefabInstance: {fileID: 0}
  m_PrefabAsset: {fileID: 0}
  m_GameObject: {fileID: 8784299579232389120}
  m_Enabled: 1
  m_CastShadows: 1
  m_ReceiveShadows: 1
  m_DynamicOccludee: 1
  m_MotionVectors: 1
  m_LightProbeUsage: 1
  m_ReflectionProbeUsage: 1
  m_RenderingLayerMask: 1
  m_RendererPriority: 0
  m_Materials:
  - {fileID: 2100000, guid: 90f8bbc55082b9441a06fe5adc394e05, type: 2}
  m_StaticBatchInfo:
    firstSubMesh: 0
    subMeshCount: 0
  m_StaticBatchRoot: {fileID: 0}
  m_ProbeAnchor: {fileID: 0}
  m_LightProbeVolumeOverride: {fileID: 0}
  m_ScaleInLightmap: 1
  m_PreserveUVs: 0
  m_IgnoreNormalsForChartDetection: 0
  m_ImportantGI: 0
  m_StitchLightmapSeams: 0
  m_SelectedEditorRenderState: 3
  m_MinimumChartSize: 4
  m_AutoUVMaxDistance: 0.5
  m_AutoUVMaxAngle: 89
  m_LightmapParameters: {fileID: 0}
  m_SortingLayerID: 0
  m_SortingLayer: 0
  m_SortingOrder: 0
--- !u!1001 &1901117077738310550
PrefabInstance:
  m_ObjectHideFlags: 0
  serializedVersion: 2
  m_Modification:
    m_TransformParent: {fileID: 1189159436409617078}
    m_Modifications:
    - target: {fileID: 2340494473029514104, guid: 96b75b80e51b3ed45a44a68c2dfcba8f,
        type: 3}
      propertyPath: m_Name
      value: Planet Turret Ring
      objectReference: {fileID: 0}
    - target: {fileID: 6293752879143478453, guid: 96b75b80e51b3ed45a44a68c2dfcba8f,
        type: 3}
      propertyPath: m_LocalPosition.x
      value: 0
      objectReference: {fileID: 0}
    - target: {fileID: 6293752879143478453, guid: 96b75b80e51b3ed45a44a68c2dfcba8f,
        type: 3}
      propertyPath: m_LocalPosition.y
      value: 0
      objectReference: {fileID: 0}
    - target: {fileID: 6293752879143478453, guid: 96b75b80e51b3ed45a44a68c2dfcba8f,
        type: 3}
      propertyPath: m_LocalPosition.z
      value: 0
      objectReference: {fileID: 0}
    - target: {fileID: 6293752879143478453, guid: 96b75b80e51b3ed45a44a68c2dfcba8f,
        type: 3}
      propertyPath: m_LocalRotation.x
      value: -0.0001746118
      objectReference: {fileID: 0}
    - target: {fileID: 6293752879143478453, guid: 96b75b80e51b3ed45a44a68c2dfcba8f,
        type: 3}
      propertyPath: m_LocalRotation.y
      value: -0
      objectReference: {fileID: 0}
    - target: {fileID: 6293752879143478453, guid: 96b75b80e51b3ed45a44a68c2dfcba8f,
        type: 3}
      propertyPath: m_LocalRotation.z
      value: -0
      objectReference: {fileID: 0}
    - target: {fileID: 6293752879143478453, guid: 96b75b80e51b3ed45a44a68c2dfcba8f,
        type: 3}
      propertyPath: m_LocalRotation.w
      value: 1
      objectReference: {fileID: 0}
    - target: {fileID: 6293752879143478453, guid: 96b75b80e51b3ed45a44a68c2dfcba8f,
        type: 3}
      propertyPath: m_RootOrder
      value: 0
      objectReference: {fileID: 0}
    - target: {fileID: 6293752879143478453, guid: 96b75b80e51b3ed45a44a68c2dfcba8f,
        type: 3}
      propertyPath: m_LocalEulerAnglesHint.x
      value: 0
      objectReference: {fileID: 0}
    - target: {fileID: 6293752879143478453, guid: 96b75b80e51b3ed45a44a68c2dfcba8f,
        type: 3}
      propertyPath: m_LocalEulerAnglesHint.y
      value: 0
      objectReference: {fileID: 0}
    - target: {fileID: 6293752879143478453, guid: 96b75b80e51b3ed45a44a68c2dfcba8f,
        type: 3}
      propertyPath: m_LocalEulerAnglesHint.z
      value: 0
      objectReference: {fileID: 0}
    - target: {fileID: 6293752879143478453, guid: 96b75b80e51b3ed45a44a68c2dfcba8f,
        type: 3}
      propertyPath: m_LocalScale.x
      value: 0.1
      objectReference: {fileID: 0}
    - target: {fileID: 6293752879143478453, guid: 96b75b80e51b3ed45a44a68c2dfcba8f,
        type: 3}
      propertyPath: m_LocalScale.y
      value: 0.099999994
      objectReference: {fileID: 0}
    - target: {fileID: 6293752879143478453, guid: 96b75b80e51b3ed45a44a68c2dfcba8f,
        type: 3}
      propertyPath: m_LocalScale.z
      value: 0.099999994
      objectReference: {fileID: 0}
    - target: {fileID: 7371924881711746116, guid: 96b75b80e51b3ed45a44a68c2dfcba8f,
        type: 3}
      propertyPath: basicRadius
      value: 28
      objectReference: {fileID: 0}
    - target: {fileID: 7371924881711746116, guid: 96b75b80e51b3ed45a44a68c2dfcba8f,
        type: 3}
      propertyPath: basicHeightOffset
      value: 3
      objectReference: {fileID: 0}
    - target: {fileID: 7371924881711746116, guid: 96b75b80e51b3ed45a44a68c2dfcba8f,
        type: 3}
      propertyPath: heavyRadius
      value: 30
      objectReference: {fileID: 0}
    - target: {fileID: 7371924881711746116, guid: 96b75b80e51b3ed45a44a68c2dfcba8f,
        type: 3}
      propertyPath: heavyHeightOffset
      value: 6
      objectReference: {fileID: 0}
    - target: {fileID: 7371924881711746116, guid: 96b75b80e51b3ed45a44a68c2dfcba8f,
        type: 3}
      propertyPath: planet
      value: 
      objectReference: {fileID: 8784299579232389120}
    m_RemovedComponents: []
  m_SourcePrefab: {fileID: 100100000, guid: 96b75b80e51b3ed45a44a68c2dfcba8f, type: 3}
--- !u!4 &5563626749024349987 stripped
Transform:
  m_CorrespondingSourceObject: {fileID: 6293752879143478453, guid: 96b75b80e51b3ed45a44a68c2dfcba8f,
    type: 3}
  m_PrefabInstance: {fileID: 1901117077738310550}
  m_PrefabAsset: {fileID: 0}
